rollman/counter.vcd
$date
	Tue Mar 15 12:41:49 2016
$end
$version
	Icarus Verilog
$end
$timescale
	1ns
$end
$scope module tb $end
$scope module counter_instance $end
$var wire 1 ! _countup_ins_get_cnt $end
$var wire 32 " _countup_ins_value [31:0] $end
$var wire 1 # _net_1 $end
$var wire 1 $ m_clock $end
$var wire 1 % p_reset $end
$var reg 32 & cnt [31:0] $end
$scope module countup_ins $end
$var wire 1 ! get_cnt $end
$var wire 1 $ m_clock $end
$var wire 1 % p_reset $end
$var wire 32 ' res [31:0] $end
$var wire 32 ( value [31:0] $end
$var reg 32 ) cnter [31:0] $end
$upscope $end
$upscope $end
$upscope $end
$enddefinitions $end
#0
$dumpvars
b0 )
b0 (
b0 '
b0 &
1%
0$
0#
b0 "
1!
$end
#1
1$
#2
0$
0%
#3
b1 )
b1 "
b1 (
b1 '
1$
#4
0$
#5
b1 &
b10 )
b10 "
b10 (
b10 '
1$
#6
0$
#7
b11 )
b11 "
b11 (
b11 '
b10 &
1$
#8
0$
#9
b11 &
b100 )
b100 "
b100 (
b100 '
1$
#10
0$
#11
b101 )
b101 "
b101 (
b101 '
b100 &
1$
#12
0$
#13
b101 &
b110 )
b110 "
b110 (
b110 '
1$
#14
0$
#15
b111 )
b111 "
b111 (
b111 '
b110 &
1$
#16
0$
#17
b111 &
b1000 )
b1000 "
b1000 (
b1000 '
1$
#18
0$
#19
b1001 )
b1001 "
b1001 (
b1001 '
b1000 &
1$
#20
0$
#21
b1001 &
b1010 )
b1010 "
b1010 (
b1010 '
1$
#22
0$
#23
b1011 )
b1011 "
b1011 (
b1011 '
b1010 &
1$
#24
0$
#25
b1011 &
b1100 )
b1100 "
b1100 (
b1100 '
1$
#26
0$
#27
b1101 )
b1101 "
b1101 (
b1101 '
b1100 &
1$
#28
0$
#29
b1101 &
b1110 )
b1110 "
b1110 (
b1110 '
1$
#30
0$
#31
b1111 )
b1111 "
b1111 (
b1111 '
b1110 &
1$
#32
0$
#33
b1111 &
b10000 )
b10000 "
b10000 (
b10000 '
1$
#34
0$
#35
b10001 )
b10001 "
b10001 (
b10001 '
b10000 &
1$
#36
0$
#37
b10001 &
b10010 )
b10010 "
b10010 (
b10010 '
1$
#38
0$
#39
b10011 )
b10011 "
b10011 (
b10011 '
b10010 &
1$
#40
0$
#41
b10011 &
b10100 )
b10100 "
b10100 (
b10100 '
1$
#42
0$
#43
b10101 )
b10101 "
b10101 (
b10101 '
b10100 &
1$
#44
0$
#45
b10101 &
b10110 )
b10110 "
b10110 (
b10110 '
1$
#46
0$
#47
b10111 )
b10111 "
b10111 (
b10111 '
b10110 &
1$
#48
0$
#49
b10111 &
b11000 )
b11000 "
b11000 (
b11000 '
1$
#50
0$
#51
b11001 )
b11001 "
b11001 (
b11001 '
b11000 &
1$
#52
0$
#53
b11001 &
b11010 )
b11010 "
b11010 (
b11010 '
1$
#54
0$
#55
b11011 )
b11011 "
b11011 (
b11011 '
b11010 &
1$
#56
0$
#57
b11011 &
b11100 )
b11100 "
b11100 (
b11100 '
1$
#58
0$
#59
b11101 )
b11101 "
b11101 (
b11101 '
b11100 &
1$
#60
0$
#61
b11101 &
b11110 )
b11110 "
b11110 (
b11110 '
1$
#62
0$
#63
b11111 )
b11111 "
b11111 (
b11111 '
b11110 &
1$
#64
0$
#65
b11111 &
b100000 )
b100000 "
b100000 (
b100000 '
1$
#66
0$
#67
b100001 )
b100001 "
b100001 (
b100001 '
b100000 &
1$
#68
0$
#69
b100001 &
b100010 )
b100010 "
b100010 (
b100010 '
1$
#70
0$
#71
b100011 )
b100011 "
b100011 (
b100011 '
b100010 &
1$
#72
0$
#73
b100011 &
b100100 )
b100100 "
b100100 (
b100100 '
1$
#74
0$
#75
b100101 )
b100101 "
b100101 (
b100101 '
b100100 &
1$
#76
0$
#77
b100101 &
b100110 )
b100110 "
b100110 (
b100110 '
1$
#78
0$
#79
b100111 )
b100111 "
b100111 (
b100111 '
b100110 &
1$
#80
0$
#81
b100111 &
b101000 )
b101000 "
b101000 (
b101000 '
1$
#82
0$
#83
b101001 )
b101001 "
b101001 (
b101001 '
b101000 &
1$
#84
0$
#85
b101001 &
b101010 )
b101010 "
b101010 (
b101010 '
1$
#86
0$
#87
b101011 )
b101011 "
b101011 (
b101011 '
b101010 &
1$
#88
0$
#89
b101011 &
b101100 )
b101100 "
b101100 (
b101100 '
1$
#90
0$
#91
b101101 )
b101101 "
b101101 (
b101101 '
b101100 &
1$
#92
0$
#93
b101101 &
b101110 )
b101110 "
b101110 (
b101110 '
1$
#94
0$
#95
b101111 )
b101111 "
b101111 (
b101111 '
b101110 &
1$
#96
0$
#97
b101111 &
b110000 )
b110000 "
b110000 (
b110000 '
1$
#98
0$
#99
b110001 )
b110001 "
b110001 (
b110001 '
b110000 &
1$
#100
0$
#101
b110001 &
b110010 )
b110010 "
b110010 (
b110010 '
1$
#102
0$
#103
b110011 )
b110011 "
b110011 (
b110011 '
b110010 &
1$
#104
0$
#105
b110011 &
b110100 )
b110100 "
b110100 (
b110100 '
1$
#106
0$
#107
b110101 )
b110101 "
b110101 (
b110101 '
b110100 &
1$
#108
0$
#109
b110101 &
b110110 )
b110110 "
b110110 (
b110110 '
1$
#110
0$
#111
b110111 )
b110111 "
b110111 (
b110111 '
b110110 &
1$
#112
0$
#113
b110111 &
b111000 )
b111000 "
b111000 (
b111000 '
1$
#114
0$
#115
b111001 )
b111001 "
b111001 (
b111001 '
b111000 &
1$
#116
0$
#117
b111001 &
b111010 )
b111010 "
b111010 (
b111010 '
1$
#118
0$
#119
b111011 )
b111011 "
b111011 (
b111011 '
b111010 &
1$
#120
0$
#121
b111011 &
b111100 )
b111100 "
b111100 (
b111100 '
1$
#122
0$
#123
b111101 )
b111101 "
b111101 (
b111101 '
b111100 &
1$
#124
0$
#125
b111101 &
b111110 )
b111110 "
b111110 (
b111110 '
1$
#126
0$
#127
b111111 )
b111111 "
b111111 (
b111111 '
b111110 &
1$
#128
0$
#129
b111111 &
b1000000 )
b1000000 "
b1000000 (
b1000000 '
1$
#130
0$
#131
b1000001 )
b1000001 "
b1000001 (
b1000001 '
b1000000 &
1$
#132
0$
#133
b1000001 &
b1000010 )
b1000010 "
b1000010 (
b1000010 '
1$
#134
0$
#135
b1000011 )
b1000011 "
b1000011 (
b1000011 '
b1000010 &
1$
#136
0$
#137
b1000011 &
b1000100 )
b1000100 "
b1000100 (
b1000100 '
1$
#138
0$
#139
b1000101 )
b1000101 "
b1000101 (
b1000101 '
b1000100 &
1$
#140
0$
#141
b1000101 &
b1000110 )
b1000110 "
b1000110 (
b1000110 '
1$
#142
0$
#143
b1000111 )
b1000111 "
b1000111 (
b1000111 '
b1000110 &
1#
1$
#144
0$
#145
b1000111 &
b1001000 )
b1001000 "
b1001000 (
b1001000 '
1$
