test06/top.vcd
$date
	Mon Mar 28 13:59:03 2016
$end
$version
	Icarus Verilog
$end
$timescale
	1ns
$end
$scope module tb $end
$scope module top_instance $end
$var wire 1 ! _counter_i_countup $end
$var wire 1 " _counter_i_m_clock $end
$var wire 1 # _counter_i_p_reset $end
$var wire 1 $ _net_21 $end
$var wire 1 % _proc_start_reset $end
$var wire 1 & _proc_start_set $end
$var wire 1 ' _reg_23_goin $end
$var wire 1 ( _reg_24_goto $end
$var wire 1 ) _reg_26_goin $end
$var wire 1 * _reg_26_goto $end
$var wire 1 + _reg_30_goin $end
$var wire 1 , _reg_31_goin $end
$var wire 1 - _reg_31_goto $end
$var wire 1 . _sr_RDX $end
$var wire 1 / _sr_m_clock $end
$var wire 1 0 _sr_p_reset $end
$var wire 1 1 m_clock $end
$var wire 1 2 p_reset $end
$var wire 1 3 _net_39 $end
$var wire 1 4 _net_38 $end
$var wire 1 5 _net_37 $end
$var wire 1 6 _net_36 $end
$var wire 1 7 _net_35 $end
$var wire 1 8 _counter_i_reset $end
$var wire 16 9 _counter_i_f [15:0] $end
$var reg 1 . DXT_r $end
$var reg 1 : _reg_22 $end
$var reg 1 ; _reg_23 $end
$var reg 1 < _reg_24 $end
$var reg 1 = _reg_25 $end
$var reg 1 > _reg_26 $end
$var reg 1 ? _reg_27 $end
$var reg 1 @ _reg_28 $end
$var reg 1 A _reg_29 $end
$var reg 1 B _reg_30 $end
$var reg 1 C _reg_31 $end
$var reg 1 D _reg_32 $end
$var reg 1 8 counter_reset $end
$var reg 8 E data [7:0] $end
$var reg 4 F loop [3:0] $end
$var reg 1 G start $end
$var reg 1 H startf $end
$scope module counter_i $end
$var wire 1 I _net_0 $end
$var wire 1 ! countup $end
$var wire 1 1 m_clock $end
$var wire 1 2 p_reset $end
$var wire 1 8 reset $end
$var wire 16 J f [15:0] $end
$var wire 1 K _net_2 $end
$var wire 1 L _net_1 $end
$var reg 32 M cnt [31:0] $end
$var reg 16 N f_r [15:0] $end
$upscope $end
$scope module sr $end
$var wire 1 . RDX $end
$var wire 1 O _counter_i_countup $end
$var wire 1 P _counter_i_m_clock $end
$var wire 1 Q _counter_i_p_reset $end
$var wire 1 R _net_5 $end
$var wire 1 S _net_6 $end
$var wire 1 T _proc_receive_reset $end
$var wire 1 U _proc_receive_set $end
$var wire 1 V _reg_11_goin $end
$var wire 1 W _reg_11_goto $end
$var wire 1 X _reg_8_goin $end
$var wire 1 Y _reg_9_goto $end
$var wire 1 1 m_clock $end
$var wire 1 2 p_reset $end
$var wire 1 Z _net_7 $end
$var wire 1 [ _net_16 $end
$var wire 1 \ _net_15 $end
$var wire 1 ] _net_14 $end
$var wire 1 ^ _counter_i_reset $end
$var wire 16 _ _counter_i_f [15:0] $end
$var reg 1 ` _reg_10 $end
$var reg 1 a _reg_11 $end
$var reg 1 b _reg_12 $end
$var reg 1 c _reg_13 $end
$var reg 1 d _reg_8 $end
$var reg 1 e _reg_9 $end
$var reg 1 ^ counter_reset $end
$var reg 4 f loop [3:0] $end
$var reg 1 g receive $end
$var reg 8 h recieved [7:0] $end
$scope module counter_i $end
$var wire 1 i _net_0 $end
$var wire 1 O countup $end
$var wire 1 1 m_clock $end
$var wire 1 2 p_reset $end
$var wire 1 ^ reset $end
$var wire 16 j f [15:0] $end
$var wire 1 k _net_2 $end
$var wire 1 l _net_1 $end
$var reg 32 m cnt [31:0] $end
$var reg 16 n f_r [15:0] $end
$upscope $end
$upscope $end
$upscope $end
$upscope $end
$enddefinitions $end
#0
$dumpvars
b0 n
b0 m
xl
xk
b0 j
1i
bx h
0g
bx f
0e
0d
0c
0b
0a
0`
b0 _
0^
x]
x\
x[
xZ
0Y
0X
0W
0V
0U
0T
0S
1R
1Q
0P
0O
b0 N
b0 M
xL
xK
b0 J
1I
0H
0G
bx F
bx E
0D
0C
0B
0A
0@
0?
0>
0=
0<
0;
0:
b0 9
08
x7
x6
x5
x4
x3
12
01
10
0/
1.
0-
0,
0+
0*
0)
0(
0'
1&
0%
1$
1#
0"
0!
$end
#1
b1101101 E
1/
1"
1P
11
#2
0/
0"
0P
01
00
0#
0Q
02
#3
0&
0$
1H
1G
1D
1/
1"
1P
11
#4
0/
0"
0P
01
#5
13
1-
1,
04
b0 F
0D
1C
1/
1"
1P
11
#6
0/
0"
0P
01
#7
b1 F
1/
1"
1P
11
#8
0/
0"
0P
01
#9
b10 F
1/
1"
1P
11
#10
0/
0"
0P
01
#11
1+
1-
14
0,
x3
b11 F
1/
1"
1P
11
#12
0/
0"
0P
01
#13
0-
0+
x4
0C
1B
1/
1"
1P
11
#14
0/
0"
0P
01
#15
0I
18
1A
0B
1/
1"
1P
11
#16
0/
0"
0P
01
#17
1l
0k
0Z
0U
1O
0R
1S
0A
1@
0.
1/
1"
1P
11
#18
0/
0"
0P
01
#19
xl
xk
0i
b0 F
bx m
1^
1?
0@
1/
1"
1P
11
#20
0/
0"
0P
01
#21
05
1I
0?
1>
08
1/
1"
1P
11
#22
0/
0"
0P
01
#23
1L
0K
x5
0I
1!
18
1=
0>
1/
1"
1P
11
#24
0/
0"
0P
01
#25
1)
1(
xL
xK
06
17
0!
0=
1<
b1 M
1/
1"
1P
11
#26
0/
0"
0P
01
#27
x6
0)
0(
x7
05
0<
1>
1/
1"
1P
11
#28
0/
0"
0P
01
#29
x5
1L
0K
1!
0>
1=
1/
1"
1P
11
#30
0/
0"
0P
01
#31
1)
1(
06
17
xL
xK
0!
b10 M
1<
0=
1/
1"
1P
11
#32
0/
0"
0P
01
#33
05
x6
0)
0(
x7
1>
0<
1/
1"
1P
11
#34
0/
0"
0P
01
#35
1L
0K
x5
1!
1=
0>
1/
1"
1P
11
#36
0/
0"
0P
01
#37
1)
1(
xL
xK
06
17
0!
0=
1<
b11 M
1/
1"
1P
11
#38
0/
0"
0P
01
#39
x6
0)
0(
x7
05
0<
1>
1/
1"
1P
11
#40
0/
0"
0P
01
#41
x5
1L
0K
1!
0>
1=
1/
1"
1P
11
#42
0/
0"
0P
01
#43
1)
1(
06
17
xL
xK
0!
b100 M
1<
0=
1/
1"
1P
11
#44
0/
0"
0P
01
#45
05
x6
0)
0(
x7
1>
0<
1/
1"
1P
11
#46
0/
0"
0P
01
#47
1L
0K
x5
1!
1=
0>
1/
1"
1P
11
#48
0/
0"
0P
01
#49
1)
1(
xL
xK
06
17
0!
0=
1<
b101 M
1/
1"
1P
11
#50
0/
0"
0P
01
#51
x6
0)
0(
x7
05
0<
1>
1/
1"
1P
11
#52
0/
0"
0P
01
#53
x5
1L
0K
1!
0>
1=
1/
1"
1P
11
#54
0/
0"
0P
01
#55
1)
1(
06
17
xL
xK
0!
b110 M
1<
0=
1/
1"
1P
11
#56
0/
0"
0P
01
#57
05
x6
0)
0(
x7
1>
0<
1/
1"
1P
11
#58
0/
0"
0P
01
#59
1L
0K
x5
1!
1=
0>
1/
1"
1P
11
#60
0/
0"
0P
01
#61
1)
1(
xL
xK
06
17
0!
0=
1<
b111 M
1/
1"
1P
11
#62
0/
0"
0P
01
#63
x6
0)
0(
x7
05
0<
1>
1/
1"
1P
11
#64
0/
0"
0P
01
#65
x5
1L
0K
1!
0>
1=
1/
1"
1P
11
#66
0/
0"
0P
01
#67
1)
1(
06
17
xL
xK
0!
b1000 M
1<
0=
1/
1"
1P
11
#68
0/
0"
0P
01
#69
05
x6
0)
0(
x7
1>
0<
1/
1"
1P
11
#70
0/
0"
0P
01
#71
1L
0K
x5
1!
1=
0>
1/
1"
1P
11
#72
0/
0"
0P
01
#73
1)
1(
xL
xK
06
17
0!
0=
1<
b1001 M
1/
1"
1P
11
#74
0/
0"
0P
01
#75
x6
0)
0(
x7
05
0<
1>
1/
1"
1P
11
#76
0/
0"
0P
01
#77
x5
1L
0K
1!
0>
1=
1/
1"
1P
11
#78
0/
0"
0P
01
#79
1)
1(
06
17
xL
xK
0!
b1010 M
1<
0=
1/
1"
1P
11
#80
0/
0"
0P
01
#81
05
x6
0)
0(
x7
1>
0<
1/
1"
1P
11
#82
0/
0"
0P
01
#83
1L
0K
x5
1!
1=
0>
1/
1"
1P
11
#84
0/
0"
0P
01
#85
1)
1(
xL
xK
06
17
0!
0=
1<
b1011 M
1/
1"
1P
11
#86
0/
0"
0P
01
#87
x6
0)
0(
x7
05
0<
1>
1/
1"
1P
11
#88
0/
0"
0P
01
#89
x5
1L
0K
1!
0>
1=
1/
1"
1P
11
#90
0/
0"
0P
01
#91
1)
1(
06
17
xL
xK
0!
b1100 M
1<
0=
1/
1"
1P
11
#92
0/
0"
0P
01
#93
05
x6
0)
0(
x7
1>
0<
1/
1"
1P
11
#94
0/
0"
0P
01
#95
1L
0K
x5
1!
1=
0>
1/
1"
1P
11
#96
0/
0"
0P
01
#97
1)
1(
xL
xK
06
17
0!
0=
1<
b1101 M
1/
1"
1P
11
#98
0/
0"
0P
01
#99
x6
0)
0(
x7
05
0<
1>
1/
1"
1P
11
#100
0/
0"
0P
01
#101
x5
1L
0K
1!
0>
1=
1/
1"
1P
11
#102
0/
0"
0P
01
#103
1)
1(
06
17
xL
xK
0!
b1110 M
1<
0=
1/
1"
1P
11
#104
0/
0"
0P
01
#105
05
x6
0)
0(
x7
1>
0<
1/
1"
1P
11
#106
0/
0"
0P
01
#107
1L
0K
x5
1!
1=
0>
1/
1"
1P
11
#108
0/
0"
0P
01
#109
1)
1(
xL
xK
06
17
0!
0=
1<
b1111 M
1/
1"
1P
11
#110
0/
0"
0P
01
#111
x6
0)
0(
x7
05
0<
1>
1/
1"
1P
11
#112
0/
0"
0P
01
#113
x5
1L
0K
1!
0>
1=
1/
1"
1P
11
#114
0/
0"
0P
01
#115
1)
1(
06
17
xL
xK
0!
b10000 M
1<
0=
1/
1"
1P
11
#116
0/
0"
0P
01
#117
05
x6
0)
0(
x7
1>
0<
1/
1"
1P
11
#118
0/
0"
0P
01
#119
1L
0K
x5
1!
1=
0>
1/
1"
1P
11
#120
0/
0"
0P
01
#121
1)
1(
xL
xK
06
17
0!
0=
1<
b10001 M
1/
1"
1P
11
#122
0/
0"
0P
01
#123
x6
0)
0(
x7
05
0<
1>
1/
1"
1P
11
#124
0/
0"
0P
01
#125
x5
1L
0K
1!
0>
1=
1/
1"
1P
11
#126
0/
0"
0P
01
#127
1)
1(
06
17
xL
xK
0!
b10010 M
1<
0=
1/
1"
1P
11
#128
0/
0"
0P
01
#129
05
x6
0)
0(
x7
1>
0<
1/
1"
1P
11
#130
0/
0"
0P
01
#131
1L
0K
x5
1!
1=
0>
1/
1"
1P
11
#132
0/
0"
0P
01
#133
1)
1(
xL
xK
06
17
0!
0=
1<
b10011 M
1/
1"
1P
11
#134
0/
0"
0P
01
#135
x6
0)
0(
x7
05
0<
1>
1/
1"
1P
11
#136
0/
0"
0P
01
#137
x5
1L
0K
1!
0>
1=
1/
1"
1P
11
#138
0/
0"
0P
01
#139
1)
1(
06
17
xL
xK
0!
b10100 M
1<
0=
1/
1"
1P
11
#140
0/
0"
0P
01
#141
05
x6
0)
0(
x7
1>
0<
1/
1"
1P
11
#142
0/
0"
0P
01
#143
1L
0K
x5
1!
1=
0>
1/
1"
1P
11
#144
0/
0"
0P
01
#145
1)
1(
xL
xK
06
17
0!
0=
1<
b10101 M
1/
1"
1P
11
#146
0/
0"
0P
01
#147
x6
0)
0(
x7
05
0<
1>
1/
1"
1P
11
#148
0/
0"
0P
01
#149
x5
1L
0K
1!
0>
1=
1/
1"
1P
11
#150
0/
0"
0P
01
#151
1)
1(
06
17
xL
xK
0!
b10110 M
1<
0=
1/
1"
1P
11
#152
0/
0"
0P
01
#153
05
x6
0)
0(
x7
1>
0<
1/
1"
1P
11
#154
0/
0"
0P
01
#155
1L
0K
x5
1!
1=
0>
1/
1"
1P
11
#156
0/
0"
0P
01
#157
1)
1(
xL
xK
06
17
0!
0=
1<
b10111 M
1/
1"
1P
11
#158
0/
0"
0P
01
#159
x6
0)
0(
x7
05
0<
1>
1/
1"
1P
11
#160
0/
0"
0P
01
#161
x5
1L
0K
1!
0>
1=
1/
1"
1P
11
#162
0/
0"
0P
01
#163
1)
1(
06
17
xL
xK
0!
b11000 M
1<
0=
1/
1"
1P
11
#164
0/
0"
0P
01
#165
05
x6
0)
0(
x7
1>
0<
1/
1"
1P
11
#166
0/
0"
0P
01
#167
1L
0K
x5
1!
1=
0>
1/
1"
1P
11
#168
0/
0"
0P
01
#169
1)
1(
xL
xK
06
17
0!
0=
1<
b11001 M
1/
1"
1P
11
#170
0/
0"
0P
01
#171
x6
0)
0(
x7
05
0<
1>
1/
1"
1P
11
#172
0/
0"
0P
01
#173
x5
1L
0K
1!
0>
1=
1/
1"
1P
11
#174
0/
0"
0P
01
#175
1)
1(
06
17
xL
xK
0!
b11010 M
1<
0=
1/
1"
1P
11
#176
0/
0"
0P
01
#177
05
x6
0)
0(
x7
1>
0<
1/
1"
1P
11
#178
0/
0"
0P
01
#179
1L
0K
x5
1!
1=
0>
1/
1"
1P
11
#180
0/
0"
0P
01
#181
1)
1(
xL
xK
06
17
0!
0=
1<
b11011 M
1/
1"
1P
11
#182
0/
0"
0P
01
#183
x6
0)
0(
x7
05
0<
1>
1/
1"
1P
11
#184
0/
0"
0P
01
#185
x5
1L
0K
1!
0>
1=
1/
1"
1P
11
#186
0/
0"
0P
01
#187
1)
1(
06
17
xL
xK
0!
b11100 M
1<
0=
1/
1"
1P
11
#188
0/
0"
0P
01
#189
05
x6
0)
0(
x7
1>
0<
1/
1"
1P
11
#190
0/
0"
0P
01
#191
1L
0K
x5
1!
1=
0>
1/
1"
1P
11
#192
0/
0"
0P
01
#193
1)
1(
xL
xK
06
17
0!
0=
1<
b11101 M
1/
1"
1P
11
#194
0/
0"
0P
01
#195
x6
0)
0(
x7
05
0<
1>
1/
1"
1P
11
#196
0/
0"
0P
01
#197
x5
1L
0K
1!
0>
1=
1/
1"
1P
11
#198
0/
0"
0P
01
#199
1)
1(
06
17
xL
xK
0!
b11110 M
1<
0=
1/
1"
1P
11
#200
0/
0"
0P
01
#201
05
x6
0)
0(
x7
1>
0<
1/
1"
1P
11
#202
0/
0"
0P
01
#203
1L
0K
x5
1!
1=
0>
1/
1"
1P
11
#204
0/
0"
0P
01
#205
1)
1(
xL
xK
06
17
0!
0=
1<
b11111 M
1/
1"
1P
11
#206
0/
0"
0P
01
#207
x6
0)
0(
x7
05
0<
1>
1/
1"
1P
11
#208
0/
0"
0P
01
#209
x5
1L
0K
1!
0>
1=
1/
1"
1P
11
#210
0/
0"
0P
01
#211
1)
1(
06
17
xL
xK
0!
b100000 M
1<
0=
1/
1"
1P
11
#212
0/
0"
0P
01
#213
05
x6
0)
0(
x7
1>
0<
1/
1"
1P
11
#214
0/
0"
0P
01
#215
1L
0K
x5
1!
1=
0>
1/
1"
1P
11
#216
0/
0"
0P
01
#217
1)
1(
xL
xK
06
17
0!
0=
1<
b100001 M
1/
1"
1P
11
#218
0/
0"
0P
01
#219
x6
0)
0(
x7
05
0<
1>
1/
1"
1P
11
#220
0/
0"
0P
01
#221
x5
1L
0K
1!
0>
1=
1/
1"
1P
11
#222
0/
0"
0P
01
#223
1)
1(
06
17
xL
xK
0!
b100010 M
1<
0=
1/
1"
1P
11
#224
0/
0"
0P
01
#225
05
x6
0)
0(
x7
1>
0<
1/
1"
1P
11
#226
0/
0"
0P
01
#227
1L
0K
x5
1!
1=
0>
1/
1"
1P
11
#228
0/
0"
0P
01
#229
1)
1(
xL
xK
06
17
0!
0=
1<
b100011 M
1/
1"
1P
11
#230
0/
0"
0P
01
#231
x6
0)
0(
x7
05
0<
1>
1/
1"
1P
11
#232
0/
0"
0P
01
#233
x5
1L
0K
1!
0>
1=
1/
1"
1P
11
#234
0/
0"
0P
01
#235
1)
1(
06
17
xL
xK
0!
b100100 M
1<
0=
1/
1"
1P
11
#236
0/
0"
0P
01
#237
05
x6
0)
0(
x7
1>
0<
1/
1"
1P
11
#238
0/
0"
0P
01
#239
1L
0K
x5
1!
1=
0>
1/
1"
1P
11
#240
0/
0"
0P
01
#241
1)
1(
xL
xK
06
17
0!
0=
1<
b100101 M
1/
1"
1P
11
#242
0/
0"
0P
01
#243
x6
0)
0(
x7
05
0<
1>
1/
1"
1P
11
#244
0/
0"
0P
01
#245
x5
1L
0K
1!
0>
1=
1/
1"
1P
11
#246
0/
0"
0P
01
#247
1)
1(
06
17
xL
xK
0!
b100110 M
1<
0=
1/
1"
1P
11
#248
0/
0"
0P
01
#249
05
x6
0)
0(
x7
1>
0<
1/
1"
1P
11
#250
0/
0"
0P
01
#251
1L
0K
x5
1!
1=
0>
1/
1"
1P
11
#252
0/
0"
0P
01
#253
1)
1(
xL
xK
06
17
0!
0=
1<
b100111 M
1/
1"
1P
11
#254
0/
0"
0P
01
#255
x6
0)
0(
x7
05
0<
1>
1/
1"
1P
11
#256
0/
0"
0P
01
#257
x5
1L
0K
1!
0>
1=
1/
1"
1P
11
#258
0/
0"
0P
01
#259
1)
1(
06
17
xL
xK
0!
b101000 M
1<
0=
1/
1"
1P
11
#260
0/
0"
0P
01
#261
05
x6
0)
0(
x7
1>
0<
1/
1"
1P
11
#262
0/
0"
0P
01
#263
1L
0K
x5
1!
1=
0>
1/
1"
1P
11
#264
0/
0"
0P
01
#265
1)
1(
xL
xK
06
17
0!
0=
1<
b101001 M
1/
1"
1P
11
#266
0/
0"
0P
01
#267
x6
0)
0(
x7
05
0<
1>
1/
1"
1P
11
#268
0/
0"
0P
01
#269
x5
1L
0K
1!
0>
1=
1/
1"
1P
11
#270
0/
0"
0P
01
#271
1)
1(
06
17
xL
xK
0!
b101010 M
1<
0=
1/
1"
1P
11
#272
0/
0"
0P
01
#273
05
x6
0)
0(
x7
1>
0<
1/
1"
1P
11
#274
0/
0"
0P
01
#275
1L
0K
x5
1!
1=
0>
1/
1"
1P
11
#276
0/
0"
0P
01
#277
1)
1(
xL
xK
06
17
0!
0=
1<
b101011 M
1/
1"
1P
11
#278
0/
0"
0P
01
#279
x6
0)
0(
x7
05
0<
1>
1/
1"
1P
11
#280
0/
0"
0P
01
#281
x5
1L
0K
1!
0>
1=
1/
1"
1P
11
#282
0/
0"
0P
01
#283
1)
1(
06
17
xL
xK
0!
b101100 M
1<
0=
1/
1"
1P
11
#284
0/
0"
0P
01
#285
05
x6
0)
0(
x7
1>
0<
1/
1"
1P
11
#286
0/
0"
0P
01
#287
1L
0K
x5
1!
1=
0>
1/
1"
1P
11
#288
0/
0"
0P
01
#289
1)
1(
xL
xK
06
17
0!
0=
1<
b101101 M
1/
1"
1P
11
#290
0/
0"
0P
01
#291
x6
0)
0(
x7
05
0<
1>
1/
1"
1P
11
#292
0/
0"
0P
01
#293
x5
1L
0K
1!
0>
1=
1/
1"
1P
11
#294
0/
0"
0P
01
#295
1)
1(
06
17
xL
xK
0!
b101110 M
1<
0=
1/
1"
1P
11
#296
0/
0"
0P
01
#297
05
x6
0)
0(
x7
1>
0<
1/
1"
1P
11
#298
0/
0"
0P
01
#299
1L
0K
x5
1!
1=
0>
1/
1"
1P
11
#300
0/
0"
0P
01
#301
1)
1(
xL
xK
06
17
0!
0=
1<
b101111 M
1/
1"
1P
11
#302
0/
0"
0P
01
#303
x6
0)
0(
x7
05
0<
1>
1/
1"
1P
11
#304
0/
0"
0P
01
#305
x5
1L
0K
1!
0>
1=
1/
1"
1P
11
#306
0/
0"
0P
01
#307
1)
1(
06
17
xL
xK
0!
b110000 M
1<
0=
1/
1"
1P
11
#308
0/
0"
0P
01
#309
05
x6
0)
0(
x7
1>
0<
1/
1"
1P
11
#310
0/
0"
0P
01
#311
1L
0K
x5
1!
1=
0>
1/
1"
1P
11
#312
0/
0"
0P
01
#313
1)
1(
xL
xK
06
17
0!
0=
1<
b110001 M
1/
1"
1P
11
#314
0/
0"
0P
01
#315
x6
0)
0(
x7
05
0<
1>
1/
1"
1P
11
#316
0/
0"
0P
01
#317
x5
1L
0K
1!
0>
1=
1/
1"
1P
11
#318
0/
0"
0P
01
#319
1)
1(
06
17
xL
xK
0!
b110010 M
1<
0=
1/
1"
1P
11
#320
0/
0"
0P
01
#321
05
x6
0)
0(
x7
1>
0<
1/
1"
1P
11
#322
0/
0"
0P
01
#323
1L
0K
x5
1!
1=
0>
1/
1"
1P
11
#324
0/
0"
0P
01
#325
1)
1(
xL
xK
06
17
0!
0=
1<
b110011 M
1/
1"
1P
11
#326
0/
0"
0P
01
#327
x6
0)
0(
x7
05
0<
1>
1/
1"
1P
11
#328
0/
0"
0P
01
#329
x5
1L
0K
1!
0>
1=
1/
1"
1P
11
#330
0/
0"
0P
01
#331
1)
1(
06
17
xL
xK
0!
b110100 M
1<
0=
1/
1"
1P
11
#332
0/
0"
0P
01
#333
05
x6
0)
0(
x7
1>
0<
1/
1"
1P
11
#334
0/
0"
0P
01
#335
1L
0K
x5
1!
1=
0>
1/
1"
1P
11
#336
0/
0"
0P
01
#337
1)
1(
xL
xK
06
17
0!
0=
1<
b110101 M
1/
1"
1P
11
#338
0/
0"
0P
01
#339
x6
0)
0(
x7
05
0<
1>
1/
1"
1P
11
#340
0/
0"
0P
01
#341
x5
1L
0K
1!
0>
1=
1/
1"
1P
11
#342
0/
0"
0P
01
#343
1)
1(
06
17
xL
xK
0!
b110110 M
1<
0=
1/
1"
1P
11
#344
0/
0"
0P
01
#345
05
x6
0)
0(
x7
1>
0<
1/
1"
1P
11
#346
0/
0"
0P
01
#347
1L
0K
x5
1!
1=
0>
1/
1"
1P
11
#348
0/
0"
0P
01
#349
1)
1(
xL
xK
06
17
0!
0=
1<
b110111 M
1/
1"
1P
11
#350
0/
0"
0P
01
#351
x6
0)
0(
x7
05
0<
1>
1/
1"
1P
11
#352
0/
0"
0P
01
#353
x5
1L
0K
1!
0>
1=
1/
1"
1P
11
#354
0/
0"
0P
01
#355
1)
1(
06
17
xL
xK
0!
b111000 M
1<
0=
1/
1"
1P
11
#356
0/
0"
0P
01
#357
05
x6
0)
0(
x7
1>
0<
1/
1"
1P
11
#358
0/
0"
0P
01
#359
1L
0K
x5
1!
1=
0>
1/
1"
1P
11
#360
0/
0"
0P
01
#361
1)
1(
xL
xK
06
17
0!
0=
1<
b111001 M
1/
1"
1P
11
#362
0/
0"
0P
01
#363
x6
0)
0(
x7
05
0<
1>
1/
1"
1P
11
#364
0/
0"
0P
01
#365
x5
1L
0K
1!
0>
1=
1/
1"
1P
11
#366
0/
0"
0P
01
#367
1)
1(
06
17
xL
xK
0!
b111010 M
1<
0=
1/
1"
1P
11
#368
0/
0"
0P
01
#369
05
x6
0)
0(
x7
1>
0<
1/
1"
1P
11
#370
0/
0"
0P
01
#371
1L
0K
x5
1!
1=
0>
1/
1"
1P
11
#372
0/
0"
0P
01
#373
1)
1(
xL
xK
06
17
0!
0=
1<
b111011 M
1/
1"
1P
11
#374
0/
0"
0P
01
#375
x6
0)
0(
x7
05
0<
1>
1/
1"
1P
11
#376
0/
0"
0P
01
#377
x5
1L
0K
1!
0>
1=
1/
1"
1P
11
#378
0/
0"
0P
01
#379
1)
1(
06
17
xL
xK
0!
b111100 M
1<
0=
1/
1"
1P
11
#380
0/
0"
0P
01
#381
05
x6
0)
0(
x7
1>
0<
1/
1"
1P
11
#382
0/
0"
0P
01
#383
1L
0K
x5
1!
1=
0>
1/
1"
1P
11
#384
0/
0"
0P
01
#385
1)
1(
xL
xK
06
17
0!
0=
1<
b111101 M
1/
1"
1P
11
#386
0/
0"
0P
01
#387
x6
0)
0(
x7
05
0<
1>
1/
1"
1P
11
#388
0/
0"
0P
01
#389
x5
1L
0K
1!
0>
1=
1/
1"
1P
11
#390
0/
0"
0P
01
#391
1)
1(
06
17
xL
xK
0!
b111110 M
1<
0=
1/
1"
1P
11
#392
0/
0"
0P
01
#393
05
x6
0)
0(
x7
1>
0<
1/
1"
1P
11
#394
0/
0"
0P
01
#395
1L
0K
x5
1!
1=
0>
1/
1"
1P
11
#396
0/
0"
0P
01
#397
1)
1(
xL
xK
06
17
0!
0=
1<
b111111 M
1/
1"
1P
11
#398
0/
0"
0P
01
#399
x6
0)
0(
x7
05
0<
1>
1/
1"
1P
11
#400
0/
0"
0P
01
#401
x5
1L
0K
1!
0>
1=
1/
1"
1P
11
#402
0/
0"
0P
01
#403
1)
1(
06
17
xL
xK
0!
b1000000 M
1<
0=
1/
1"
1P
11
#404
0/
0"
0P
01
#405
05
x6
0)
0(
x7
1>
0<
1/
1"
1P
11
#406
0/
0"
0P
01
#407
1L
0K
x5
1!
1=
0>
1/
1"
1P
11
#408
0/
0"
0P
01
#409
1)
1(
xL
xK
06
17
0!
0=
1<
b1000001 M
1/
1"
1P
11
#410
0/
0"
0P
01
#411
x6
0)
0(
x7
05
0<
1>
1/
1"
1P
11
#412
0/
0"
0P
01
#413
x5
1L
0K
1!
0>
1=
1/
1"
1P
11
#414
0/
0"
0P
01
#415
1)
1(
06
17
xL
xK
0!
b1000010 M
1<
0=
1/
1"
1P
11
#416
0/
0"
0P
01
#417
05
x6
0)
0(
x7
1>
0<
1/
1"
1P
11
#418
0/
0"
0P
01
#419
1L
0K
x5
1!
1=
0>
1/
1"
1P
11
#420
0/
0"
0P
01
#421
1)
1(
xL
xK
06
17
0!
0=
1<
b1000011 M
1/
1"
1P
11
#422
0/
0"
0P
01
#423
x6
0)
0(
x7
05
0<
1>
1/
1"
1P
11
#424
0/
0"
0P
01
#425
x5
1L
0K
1!
0>
1=
1/
1"
1P
11
#426
0/
0"
0P
01
#427
1)
1(
06
17
xL
xK
0!
b1000100 M
1<
0=
1/
1"
1P
11
#428
0/
0"
0P
01
#429
05
x6
0)
0(
x7
1>
0<
1/
1"
1P
11
#430
0/
0"
0P
01
#431
1L
0K
x5
1!
1=
0>
1/
1"
1P
11
#432
0/
0"
0P
01
#433
1)
1(
xL
xK
06
17
0!
0=
1<
b1000101 M
1/
1"
1P
11
#434
0/
0"
0P
01
#435
x6
0)
0(
x7
05
0<
1>
1/
1"
1P
11
#436
0/
0"
0P
01
#437
x5
1L
0K
1!
0>
1=
1/
1"
1P
11
#438
0/
0"
0P
01
#439
1)
1(
06
17
xL
xK
0!
b1000110 M
1<
0=
1/
1"
1P
11
#440
0/
0"
0P
01
#441
05
x6
0)
0(
x7
1>
0<
1/
1"
1P
11
#442
0/
0"
0P
01
#443
1L
0K
x5
1!
1=
0>
1/
1"
1P
11
#444
0/
0"
0P
01
#445
1)
1(
xL
xK
06
17
0!
0=
1<
b1000111 M
1/
1"
1P
11
#446
0/
0"
0P
01
#447
x6
0)
0(
x7
05
0<
1>
1/
1"
1P
11
#448
0/
0"
0P
01
#449
x5
1L
0K
1!
0>
1=
1/
1"
1P
11
#450
0/
0"
0P
01
#451
1)
1(
06
17
xL
xK
0!
b1001000 M
1<
0=
1/
1"
1P
11
#452
0/
0"
0P
01
#453
05
x6
0)
0(
x7
1>
0<
1/
1"
1P
11
#454
0/
0"
0P
01
#455
1L
0K
x5
1!
1=
0>
1/
1"
1P
11
#456
0/
0"
0P
01
#457
1)
1(
xL
xK
06
17
0!
0=
1<
b1001001 M
1/
1"
1P
11
#458
0/
0"
0P
01
#459
x6
0)
0(
x7
05
0<
1>
1/
1"
1P
11
#460
0/
0"
0P
01
#461
x5
1L
0K
1!
0>
1=
1/
1"
1P
11
#462
0/
0"
0P
01
#463
1)
1(
06
17
xL
xK
0!
b1001010 M
1<
0=
1/
1"
1P
11
#464
0/
0"
0P
01
#465
05
x6
0)
0(
x7
1>
0<
1/
1"
1P
11
#466
0/
0"
0P
01
#467
1L
0K
x5
1!
1=
0>
1/
1"
1P
11
#468
0/
0"
0P
01
#469
1)
1(
xL
xK
06
17
0!
0=
1<
b1001011 M
1/
1"
1P
11
#470
0/
0"
0P
01
#471
x6
0)
0(
x7
05
0<
1>
1/
1"
1P
11
#472
0/
0"
0P
01
#473
x5
1L
0K
1!
0>
1=
1/
1"
1P
11
#474
0/
0"
0P
01
#475
1)
1(
06
17
xL
xK
0!
b1001100 M
1<
0=
1/
1"
1P
11
#476
0/
0"
0P
01
#477
05
x6
0)
0(
x7
1>
0<
1/
1"
1P
11
#478
0/
0"
0P
01
#479
1L
0K
x5
1!
1=
0>
1/
1"
1P
11
#480
0/
0"
0P
01
#481
1)
1(
xL
xK
06
17
0!
0=
1<
b1001101 M
1/
1"
1P
11
#482
0/
0"
0P
01
#483
x6
0)
0(
x7
05
0<
1>
1/
1"
1P
11
#484
0/
0"
0P
01
#485
x5
1L
0K
1!
0>
1=
1/
1"
1P
11
#486
0/
0"
0P
01
#487
1)
1(
06
17
xL
xK
0!
b1001110 M
1<
0=
1/
1"
1P
11
#488
0/
0"
0P
01
#489
05
x6
0)
0(
x7
1>
0<
1/
1"
1P
11
#490
0/
0"
0P
01
#491
1L
0K
x5
1!
1=
0>
1/
1"
1P
11
#492
0/
0"
0P
01
#493
1)
1(
xL
xK
06
17
0!
0=
1<
b1001111 M
1/
1"
1P
11
#494
0/
0"
0P
01
#495
x6
0)
0(
x7
05
0<
1>
1/
1"
1P
11
#496
0/
0"
0P
01
#497
x5
1L
0K
1!
0>
1=
1/
1"
1P
11
#498
0/
0"
0P
01
#499
1)
1(
06
17
xL
xK
0!
b1010000 M
1<
0=
1/
1"
1P
11
#500
0/
0"
0P
01
#501
05
x6
0)
0(
x7
1>
0<
1/
1"
1P
11
#502
0/
0"
0P
01
#503
1L
0K
x5
1!
1=
0>
1/
1"
1P
11
#504
0/
0"
0P
01
#505
1)
1(
xL
xK
06
17
0!
0=
1<
b1010001 M
1/
1"
1P
11
#506
0/
0"
0P
01
#507
x6
0)
0(
x7
05
0<
1>
1/
1"
1P
11
#508
0/
0"
0P
01
#509
x5
1L
0K
1!
0>
1=
1/
1"
1P
11
#510
0/
0"
0P
01
