uart/testbench_r.vcd
$date
	Fri Aug 19 17:29:43 2016
$end
$version
	Icarus Verilog
$end
$timescale
	1ns
$end
$scope module tb $end
$scope module testbench_r_instance $end
$var wire 1 ! _receiver_RDX $end
$var wire 1 " _receiver_launch $end
$var wire 1 # _receiver_m_clock $end
$var wire 1 $ _receiver_p_reset $end
$var wire 1 % _sender_launch $end
$var wire 1 & _sender_m_clock $end
$var wire 1 ' _sender_p_reset $end
$var wire 1 ( m_clock $end
$var wire 1 ) p_reset $end
$var wire 8 * _sender_datain [7:0] $end
$var wire 1 + _sender_complete $end
$var wire 1 , _sender_TDX $end
$var wire 1 - _receiver_complete $end
$var wire 8 . _receiver_DATA [7:0] $end
$var wire 1 / _net_19 $end
$var wire 1 0 _net_18 $end
$var wire 1 1 _net_17 $end
$var reg 16 2 cnt [15:0] $end
$scope module receiver $end
$var wire 1 ! RDX $end
$var wire 1 3 _net_9 $end
$var wire 1 4 _proc_receive_reset $end
$var wire 1 5 _proc_receive_set $end
$var wire 1 6 _proc_start_reset $end
$var wire 1 7 _proc_start_set $end
$var wire 1 - complete $end
$var wire 1 " launch $end
$var wire 1 ( m_clock $end
$var wire 1 ) p_reset $end
$var wire 1 8 _net_16 $end
$var wire 1 9 _net_15 $end
$var wire 1 : _net_14 $end
$var wire 1 ; _net_13 $end
$var wire 1 < _net_12 $end
$var wire 1 = _net_11 $end
$var wire 1 > _net_10 $end
$var wire 8 ? DATA [7:0] $end
$var reg 16 @ cnt [15:0] $end
$var reg 8 A data [7:0] $end
$var reg 1 B receive $end
$var reg 4 C received_bit [3:0] $end
$var reg 1 D start $end
$upscope $end
$scope module sender $end
$var wire 1 E _proc_endbit_reset $end
$var wire 1 F _proc_endbit_set $end
$var wire 1 G _proc_send_reset $end
$var wire 1 H _proc_send_set $end
$var wire 1 I _proc_startbit_reset $end
$var wire 1 J _proc_startbit_set $end
$var wire 1 + complete $end
$var wire 8 K datain [7:0] $end
$var wire 1 % launch $end
$var wire 1 ( m_clock $end
$var wire 1 ) p_reset $end
$var wire 1 L _net_8 $end
$var wire 1 M _net_7 $end
$var wire 1 N _net_6 $end
$var wire 1 O _net_5 $end
$var wire 1 P _net_4 $end
$var wire 1 Q _net_3 $end
$var wire 1 R _net_2 $end
$var wire 1 S _net_1 $end
$var wire 1 T _net_0 $end
$var wire 1 , TDX $end
$var reg 1 , TDX_r $end
$var reg 16 U cnt [15:0] $end
$var reg 8 V data [7:0] $end
$var reg 1 W endbit $end
$var reg 5 X idx [4:0] $end
$var reg 1 Y send $end
$var reg 1 Z startbit $end
$upscope $end
$upscope $end
$upscope $end
$enddefinitions $end
#0
$dumpvars
0Z
0Y
b0 X
0W
b0 V
b0 U
xT
xS
xR
xQ
xP
xO
xN
xM
xL
bx K
0J
0I
0H
0G
0F
0E
0D
b0 C
0B
b0 A
b0 @
bx ?
x>
x=
x<
x;
x:
x9
x8
17
06
05
04
13
b0 2
11
00
0/
bx .
0-
1,
0+
bx *
1)
0(
1'
0&
0%
1$
0#
1"
1!
$end
#1
1&
1#
1(
#2
0&
0#
0(
0'
0$
0)
#3
07
03
05
06
0>
1;
1D
b1 2
1&
1#
1(
#4
0&
0#
0(
#5
b10 2
1&
1#
1(
#6
0&
0#
0(
#7
b11 2
1&
1#
1(
#8
0&
0#
0(
#9
b100 2
1&
1#
1(
#10
0&
0#
0(
#11
b101 2
1&
1#
1(
#12
0&
0#
0(
#13
b110 2
1&
1#
1(
#14
0&
0#
0(
#15
b111 2
1&
1#
1(
#16
0&
0#
0(
#17
b1000 2
1&
1#
1(
#18
0&
0#
0(
#19
b1001 2
1&
1#
1(
#20
0&
0#
0(
#21
1J
b10001 *
b10001 K
1T
01
1%
10
b1010 2
1&
1#
1(
#22
0&
0#
0(
#23
0J
0T
1S
0R
0I
0H
b10001 V
1Z
1&
1#
1(
#24
0&
0#
0(
#25
0<
1=
05
06
1>
0;
b1 U
0!
0,
1&
1#
1(
#26
0&
0#
0(
#27
b1 @
b10 U
1&
1#
1(
#28
0&
0#
0(
#29
b11 U
b10 @
1&
1#
1(
#30
0&
0#
0(
#31
b11 @
b100 U
1&
1#
1(
#32
0&
0#
0(
#33
b101 U
b100 @
1&
1#
1(
#34
0&
0#
0(
#35
b101 @
b110 U
1&
1#
1(
#36
0&
0#
0(
#37
b111 U
b110 @
1&
1#
1(
#38
0&
0#
0(
#39
b111 @
b1000 U
1&
1#
1(
#40
0&
0#
0(
#41
b1001 U
b1000 @
1&
1#
1(
#42
0&
0#
0(
#43
b1001 @
b1010 U
1&
1#
1(
#44
0&
0#
0(
#45
b1011 U
b1010 @
1&
1#
1(
#46
0&
0#
0(
#47
b1011 @
b1100 U
1&
1#
1(
#48
0&
0#
0(
#49
b1101 U
b1100 @
1&
1#
1(
#50
0&
0#
0(
#51
b1101 @
b1110 U
1&
1#
1(
#52
0&
0#
0(
#53
b1111 U
b1110 @
1&
1#
1(
#54
0&
0#
0(
#55
b1111 @
b10000 U
1&
1#
1(
#56
0&
0#
0(
#57
b10001 U
b10000 @
1&
1#
1(
#58
0&
0#
0(
#59
b10001 @
b10010 U
1&
1#
1(
#60
0&
0#
0(
#61
b10011 U
b10010 @
1&
1#
1(
#62
0&
0#
0(
#63
b10011 @
b10100 U
1&
1#
1(
#64
0&
0#
0(
#65
b10101 U
b10100 @
1&
1#
1(
#66
0&
0#
0(
#67
b10101 @
b10110 U
1&
1#
1(
#68
0&
0#
0(
#69
b10111 U
b10110 @
1&
1#
1(
#70
0&
0#
0(
#71
b10111 @
b11000 U
1&
1#
1(
#72
0&
0#
0(
#73
b11001 U
b11000 @
1&
1#
1(
#74
0&
0#
0(
#75
b11001 @
b11010 U
1&
1#
1(
#76
0&
0#
0(
#77
b11011 U
b11010 @
1&
1#
1(
#78
0&
0#
0(
#79
b11011 @
b11100 U
1&
1#
1(
#80
0&
0#
0(
#81
b11101 U
b11100 @
1&
1#
1(
#82
0&
0#
0(
#83
b11101 @
b11110 U
1&
1#
1(
#84
0&
0#
0(
#85
b11111 U
b11110 @
1&
1#
1(
#86
0&
0#
0(
#87
b11111 @
b100000 U
1&
1#
1(
#88
0&
0#
0(
#89
b100001 U
b100000 @
1&
1#
1(
#90
0&
0#
0(
#91
b100001 @
b100010 U
1&
1#
1(
#92
0&
0#
0(
#93
b100011 U
b100010 @
1&
1#
1(
#94
0&
0#
0(
#95
b100011 @
b100100 U
1&
1#
1(
#96
0&
0#
0(
#97
b100101 U
b100100 @
1&
1#
1(
#98
0&
0#
0(
#99
b100101 @
b100110 U
1&
1#
1(
#100
0&
0#
0(
#101
b100111 U
b100110 @
1&
1#
1(
#102
0&
0#
0(
#103
b100111 @
b101000 U
1&
1#
1(
#104
0&
0#
0(
#105
b101001 U
b101000 @
1&
1#
1(
#106
0&
0#
0(
#107
b101001 @
b101010 U
1&
1#
1(
#108
0&
0#
0(
#109
b101011 U
b101010 @
1&
1#
1(
#110
0&
0#
0(
#111
b101011 @
b101100 U
1&
1#
1(
#112
0&
0#
0(
#113
b101101 U
b101100 @
1&
1#
1(
#114
0&
0#
0(
#115
b101101 @
b101110 U
1&
1#
1(
#116
0&
0#
0(
#117
b101111 U
b101110 @
1&
1#
1(
#118
0&
0#
0(
#119
b101111 @
b110000 U
1&
1#
1(
#120
0&
0#
0(
#121
b110001 U
b110000 @
1&
1#
1(
#122
0&
0#
0(
#123
b110001 @
b110010 U
1&
1#
1(
#124
0&
0#
0(
#125
b110011 U
b110010 @
1&
1#
1(
#126
0&
0#
0(
#127
b110011 @
b110100 U
1&
1#
1(
#128
0&
0#
0(
#129
b110101 U
b110100 @
1&
1#
1(
#130
0&
0#
0(
#131
b110101 @
b110110 U
1&
1#
1(
#132
0&
0#
0(
#133
b110111 U
b110110 @
1&
1#
1(
#134
0&
0#
0(
#135
b110111 @
b111000 U
1&
1#
1(
#136
0&
0#
0(
#137
b111001 U
b111000 @
1&
1#
1(
#138
0&
0#
0(
#139
b111001 @
b111010 U
1&
1#
1(
#140
0&
0#
0(
#141
b111011 U
b111010 @
1&
1#
1(
#142
0&
0#
0(
#143
b111011 @
b111100 U
1&
1#
1(
#144
0&
0#
0(
#145
b111101 U
b111100 @
1&
1#
1(
#146
0&
0#
0(
#147
b111101 @
b111110 U
1&
1#
1(
#148
0&
0#
0(
#149
b111111 U
b111110 @
1&
1#
1(
#150
0&
0#
0(
#151
b111111 @
b1000000 U
1&
1#
1(
#152
0&
0#
0(
#153
b1000001 U
b1000000 @
1&
1#
1(
#154
0&
0#
0(
#155
b1000001 @
b1000010 U
1&
1#
1(
#156
0&
0#
0(
#157
b1000011 U
b1000010 @
1&
1#
1(
#158
0&
0#
0(
#159
b1000011 @
b1000100 U
1&
1#
1(
#160
0&
0#
0(
#161
b1000101 U
b1000100 @
1&
1#
1(
#162
0&
0#
0(
#163
b1000101 @
b1000110 U
1&
1#
1(
#164
0&
0#
0(
#165
b1000111 U
b1000110 @
1&
1#
1(
#166
0&
0#
0(
#167
b1000111 @
b1001000 U
1&
1#
1(
#168
0&
0#
0(
#169
b1001001 U
b1001000 @
1&
1#
1(
#170
0&
0#
0(
#171
b1001001 @
b1001010 U
1&
1#
1(
#172
0&
0#
0(
#173
b1001011 U
b1001010 @
1&
1#
1(
#174
0&
0#
0(
#175
b1001011 @
b1001100 U
1&
1#
1(
#176
0&
0#
0(
#177
b1001101 U
b1001100 @
1&
1#
1(
#178
0&
0#
0(
#179
b1001101 @
b1001110 U
1&
1#
1(
#180
0&
0#
0(
#181
b1001111 U
b1001110 @
1&
1#
1(
#182
0&
0#
0(
#183
b1001111 @
b1010000 U
1&
1#
1(
#184
0&
0#
0(
#185
b1010001 U
b1010000 @
1&
1#
1(
#186
0&
0#
0(
#187
b1010001 @
b1010010 U
1&
1#
1(
#188
0&
0#
0(
#189
b1010011 U
b1010010 @
1&
1#
1(
#190
0&
0#
0(
#191
b1010011 @
b1010100 U
1&
1#
1(
#192
0&
0#
0(
#193
b1010101 U
b1010100 @
1&
1#
1(
#194
0&
0#
0(
#195
b1010101 @
b1010110 U
1&
1#
1(
#196
0&
0#
0(
#197
b1010111 U
b1010110 @
1&
1#
1(
#198
0&
0#
0(
#199
b1010111 @
b1011000 U
1&
1#
1(
#200
0&
0#
0(
#201
b1011001 U
b1011000 @
1&
1#
1(
#202
0&
0#
0(
#203
b1011001 @
b1011010 U
1&
1#
1(
#204
0&
0#
0(
#205
b1011011 U
b1011010 @
1&
1#
1(
#206
0&
0#
0(
#207
b1011011 @
b1011100 U
1&
1#
1(
#208
0&
0#
0(
#209
b1011101 U
b1011100 @
1&
1#
1(
#210
0&
0#
0(
#211
b1011101 @
b1011110 U
1&
1#
1(
#212
0&
0#
0(
#213
b1011111 U
b1011110 @
1&
1#
1(
#214
0&
0#
0(
#215
b1011111 @
b1100000 U
1&
1#
1(
#216
0&
0#
0(
#217
b1100001 U
b1100000 @
1&
1#
1(
#218
0&
0#
0(
#219
b1100001 @
b1100010 U
1&
1#
1(
#220
0&
0#
0(
#221
b1100011 U
b1100010 @
1&
1#
1(
#222
0&
0#
0(
#223
b1100011 @
b1100100 U
1&
1#
1(
#224
0&
0#
0(
#225
b1100101 U
b1100100 @
1&
1#
1(
#226
0&
0#
0(
#227
b1100101 @
b1100110 U
1&
1#
1(
#228
0&
0#
0(
#229
b1100111 U
b1100110 @
1&
1#
1(
#230
0&
0#
0(
#231
b1100111 @
b1101000 U
1&
1#
1(
#232
0&
0#
0(
#233
b1101001 U
b1101000 @
1&
1#
1(
#234
0&
0#
0(
#235
b1101001 @
b1101010 U
1&
1#
1(
#236
0&
0#
0(
#237
b1101011 U
b1101010 @
1&
1#
1(
#238
0&
0#
0(
#239
b1101011 @
b1101100 U
1&
1#
1(
#240
0&
0#
0(
#241
b1101101 U
b1101100 @
1&
1#
1(
#242
0&
0#
0(
#243
b1101101 @
b1101110 U
1&
1#
1(
#244
0&
0#
0(
#245
b1101111 U
b1101110 @
1&
1#
1(
#246
0&
0#
0(
#247
b1101111 @
b1110000 U
1&
1#
1(
#248
0&
0#
0(
#249
b1110001 U
b1110000 @
1&
1#
1(
#250
0&
0#
0(
#251
b1110001 @
b1110010 U
1&
1#
1(
#252
0&
0#
0(
#253
b1110011 U
b1110010 @
1&
1#
1(
#254
0&
0#
0(
#255
b1110011 @
b1110100 U
1&
1#
1(
#256
0&
0#
0(
#257
b1110101 U
b1110100 @
1&
1#
1(
#258
0&
0#
0(
#259
b1110101 @
b1110110 U
1&
1#
1(
#260
0&
0#
0(
#261
b1110111 U
b1110110 @
1&
1#
1(
#262
0&
0#
0(
#263
b1110111 @
b1111000 U
1&
1#
1(
#264
0&
0#
0(
#265
b1111001 U
b1111000 @
1&
1#
1(
#266
0&
0#
0(
#267
b1111001 @
b1111010 U
1&
1#
1(
#268
0&
0#
0(
#269
b1111011 U
b1111010 @
1&
1#
1(
#270
0&
0#
0(
#271
b1111011 @
b1111100 U
1&
1#
1(
#272
0&
0#
0(
#273
b1111101 U
b1111100 @
1&
1#
1(
#274
0&
0#
0(
#275
b1111101 @
b1111110 U
1&
1#
1(
#276
0&
0#
0(
#277
b1111111 U
b1111110 @
1&
1#
1(
#278
0&
0#
0(
#279
b1111111 @
b10000000 U
1&
1#
1(
#280
0&
0#
0(
#281
b10000001 U
b10000000 @
1&
1#
1(
#282
0&
0#
0(
#283
b10000001 @
b10000010 U
1&
1#
1(
#284
0&
0#
0(
#285
b10000011 U
b10000010 @
1&
1#
1(
#286
0&
0#
0(
#287
b10000011 @
b10000100 U
1&
1#
1(
#288
0&
0#
0(
#289
b10000101 U
b10000100 @
1&
1#
1(
#290
0&
0#
0(
#291
b10000101 @
b10000110 U
1&
1#
1(
#292
0&
0#
0(
#293
b10000111 U
b10000110 @
1&
1#
1(
#294
0&
0#
0(
#295
b10000111 @
b10001000 U
1&
1#
1(
#296
0&
0#
0(
#297
b10001001 U
b10001000 @
1&
1#
1(
#298
0&
0#
0(
#299
b10001001 @
b10001010 U
1&
1#
1(
#300
0&
0#
0(
#301
b10001011 U
b10001010 @
1&
1#
1(
#302
0&
0#
0(
#303
b10001011 @
b10001100 U
1&
1#
1(
#304
0&
0#
0(
#305
b10001101 U
b10001100 @
1&
1#
1(
#306
0&
0#
0(
#307
b10001101 @
b10001110 U
1&
1#
1(
#308
0&
0#
0(
#309
b10001111 U
b10001110 @
1&
1#
1(
#310
0&
0#
0(
#311
b10001111 @
b10010000 U
1&
1#
1(
#312
0&
0#
0(
#313
b10010001 U
b10010000 @
1&
1#
1(
#314
0&
0#
0(
#315
b10010001 @
b10010010 U
1&
1#
1(
#316
0&
0#
0(
#317
b10010011 U
b10010010 @
1&
1#
1(
#318
0&
0#
0(
#319
b10010011 @
b10010100 U
1&
1#
1(
#320
0&
0#
0(
#321
b10010101 U
b10010100 @
1&
1#
1(
#322
0&
0#
0(
#323
b10010101 @
b10010110 U
1&
1#
1(
#324
0&
0#
0(
#325
b10010111 U
b10010110 @
1&
1#
1(
#326
0&
0#
0(
#327
b10010111 @
b10011000 U
1&
1#
1(
#328
0&
0#
0(
#329
b10011001 U
b10011000 @
1&
1#
1(
#330
0&
0#
0(
#331
b10011001 @
b10011010 U
1&
1#
1(
#332
0&
0#
0(
#333
b10011011 U
b10011010 @
1&
1#
1(
#334
0&
0#
0(
#335
b10011011 @
b10011100 U
1&
1#
1(
#336
0&
0#
0(
#337
b10011101 U
b10011100 @
1&
1#
1(
#338
0&
0#
0(
#339
b10011101 @
b10011110 U
1&
1#
1(
#340
0&
0#
0(
#341
b10011111 U
b10011110 @
1&
1#
1(
#342
0&
0#
0(
#343
b10011111 @
b10100000 U
1&
1#
1(
#344
0&
0#
0(
#345
b10100001 U
b10100000 @
1&
1#
1(
#346
0&
0#
0(
#347
b10100001 @
b10100010 U
1&
1#
1(
#348
0&
0#
0(
#349
b10100011 U
b10100010 @
1&
1#
1(
#350
0&
0#
0(
#351
b10100011 @
b10100100 U
1&
1#
1(
#352
0&
0#
0(
#353
b10100101 U
b10100100 @
1&
1#
1(
#354
0&
0#
0(
#355
b10100101 @
b10100110 U
1&
1#
1(
#356
0&
0#
0(
#357
b10100111 U
b10100110 @
1&
1#
1(
#358
0&
0#
0(
#359
b10100111 @
b10101000 U
1&
1#
1(
#360
0&
0#
0(
#361
b10101001 U
b10101000 @
1&
1#
1(
#362
0&
0#
0(
#363
b10101001 @
b10101010 U
1&
1#
1(
#364
0&
0#
0(
#365
b10101011 U
b10101010 @
1&
1#
1(
#366
0&
0#
0(
#367
b10101011 @
b10101100 U
1&
1#
1(
#368
0&
0#
0(
#369
b10101101 U
b10101100 @
1&
1#
1(
#370
0&
0#
0(
#371
b10101101 @
b10101110 U
1&
1#
1(
#372
0&
0#
0(
#373
b10101111 U
b10101110 @
1&
1#
1(
#374
0&
0#
0(
#375
b10101111 @
b10110000 U
1&
1#
1(
#376
0&
0#
0(
#377
b10110001 U
b10110000 @
1&
1#
1(
#378
0&
0#
0(
#379
b10110001 @
b10110010 U
1&
1#
1(
#380
0&
0#
0(
#381
b10110011 U
b10110010 @
1&
1#
1(
#382
0&
0#
0(
#383
b10110011 @
b10110100 U
1&
1#
1(
#384
0&
0#
0(
#385
b10110101 U
b10110100 @
1&
1#
1(
#386
0&
0#
0(
#387
b10110101 @
b10110110 U
1&
1#
1(
#388
0&
0#
0(
#389
b10110111 U
b10110110 @
1&
1#
1(
#390
0&
0#
0(
#391
b10110111 @
b10111000 U
1&
1#
1(
#392
0&
0#
0(
#393
b10111001 U
b10111000 @
1&
1#
1(
#394
0&
0#
0(
#395
b10111001 @
b10111010 U
1&
1#
1(
#396
0&
0#
0(
#397
b10111011 U
b10111010 @
1&
1#
1(
#398
0&
0#
0(
#399
b10111011 @
b10111100 U
1&
1#
1(
#400
0&
0#
0(
#401
b10111101 U
b10111100 @
1&
1#
1(
#402
0&
0#
0(
#403
b10111101 @
b10111110 U
1&
1#
1(
#404
0&
0#
0(
#405
b10111111 U
b10111110 @
1&
1#
1(
#406
0&
0#
0(
#407
b10111111 @
b11000000 U
1&
1#
1(
#408
0&
0#
0(
#409
b11000001 U
b11000000 @
1&
1#
1(
#410
0&
0#
0(
#411
b11000001 @
b11000010 U
1&
1#
1(
#412
0&
0#
0(
#413
b11000011 U
b11000010 @
1&
1#
1(
#414
0&
0#
0(
#415
b11000011 @
b11000100 U
1&
1#
1(
#416
0&
0#
0(
#417
b11000101 U
b11000100 @
1&
1#
1(
#418
0&
0#
0(
#419
b11000101 @
b11000110 U
1&
1#
1(
#420
0&
0#
0(
#421
b11000111 U
b11000110 @
1&
1#
1(
#422
0&
0#
0(
#423
b11000111 @
b11001000 U
1&
1#
1(
#424
0&
0#
0(
#425
b11001001 U
b11001000 @
1&
1#
1(
#426
0&
0#
0(
#427
b11001001 @
b11001010 U
1&
1#
1(
#428
0&
0#
0(
#429
b11001011 U
b11001010 @
1&
1#
1(
#430
0&
0#
0(
#431
b11001011 @
b11001100 U
1&
1#
1(
#432
0&
0#
0(
#433
b11001101 U
b11001100 @
1&
1#
1(
#434
0&
0#
0(
#435
b11001101 @
b11001110 U
1&
1#
1(
#436
0&
0#
0(
#437
b11001111 U
b11001110 @
1&
1#
1(
#438
0&
0#
0(
#439
b11001111 @
b11010000 U
1&
1#
1(
#440
0&
0#
0(
#441
b11010001 U
b11010000 @
1&
1#
1(
#442
0&
0#
0(
#443
b11010001 @
b11010010 U
1&
1#
1(
#444
0&
0#
0(
#445
b11010011 U
b11010010 @
1&
1#
1(
#446
0&
0#
0(
#447
b11010011 @
b11010100 U
1&
1#
1(
#448
0&
0#
0(
#449
b11010101 U
b11010100 @
1&
1#
1(
#450
0&
0#
0(
#451
b11010101 @
b11010110 U
1&
1#
1(
#452
0&
0#
0(
#453
b11010111 U
b11010110 @
1&
1#
1(
#454
0&
0#
0(
#455
b11010111 @
b11011000 U
1&
1#
1(
#456
0&
0#
0(
#457
b11011001 U
b11011000 @
1&
1#
1(
#458
0&
0#
0(
#459
b11011001 @
b11011010 U
1&
1#
1(
#460
0&
0#
0(
#461
b11011011 U
b11011010 @
1&
1#
1(
#462
0&
0#
0(
#463
b11011011 @
b11011100 U
1&
1#
1(
#464
0&
0#
0(
#465
b11011101 U
b11011100 @
1&
1#
1(
#466
0&
0#
0(
#467
b11011101 @
b11011110 U
1&
1#
1(
#468
0&
0#
0(
#469
b11011111 U
b11011110 @
1&
1#
1(
#470
0&
0#
0(
#471
b11011111 @
b11100000 U
1&
1#
1(
#472
0&
0#
0(
#473
b11100001 U
b11100000 @
1&
1#
1(
#474
0&
0#
0(
#475
b11100001 @
b11100010 U
1&
1#
1(
#476
0&
0#
0(
#477
b11100011 U
b11100010 @
1&
1#
1(
#478
0&
0#
0(
#479
b11100011 @
b11100100 U
1&
1#
1(
#480
0&
0#
0(
#481
b11100101 U
b11100100 @
1&
1#
1(
#482
0&
0#
0(
#483
b11100101 @
b11100110 U
1&
1#
1(
#484
0&
0#
0(
#485
b11100111 U
b11100110 @
1&
1#
1(
#486
0&
0#
0(
#487
b11100111 @
b11101000 U
1&
1#
1(
#488
0&
0#
0(
#489
b11101001 U
b11101000 @
1&
1#
1(
#490
0&
0#
0(
#491
b11101001 @
b11101010 U
1&
1#
1(
#492
0&
0#
0(
#493
b11101011 U
b11101010 @
1&
1#
1(
#494
0&
0#
0(
#495
b11101011 @
b11101100 U
1&
1#
1(
#496
0&
0#
0(
#497
b11101101 U
b11101100 @
1&
1#
1(
#498
0&
0#
0(
#499
b11101101 @
b11101110 U
1&
1#
1(
#500
0&
0#
0(
#501
b11101111 U
b11101110 @
1&
1#
1(
#502
0&
0#
0(
#503
b11101111 @
b11110000 U
1&
1#
1(
#504
0&
0#
0(
#505
b11110001 U
b11110000 @
1&
1#
1(
#506
0&
0#
0(
#507
b11110001 @
b11110010 U
1&
1#
1(
#508
0&
0#
0(
#509
b11110011 U
b11110010 @
1&
1#
1(
#510
0&
0#
0(
#511
b11110011 @
b11110100 U
1&
1#
1(
#512
0&
0#
0(
#513
b11110101 U
b11110100 @
1&
1#
1(
#514
0&
0#
0(
#515
b11110101 @
b11110110 U
1&
1#
1(
#516
0&
0#
0(
#517
b11110111 U
b11110110 @
1&
1#
1(
#518
0&
0#
0(
#519
b11110111 @
b11111000 U
1&
1#
1(
#520
0&
0#
0(
#521
b11111001 U
b11111000 @
1&
1#
1(
#522
0&
0#
0(
#523
b11111001 @
b11111010 U
1&
1#
1(
#524
0&
0#
0(
#525
b11111011 U
b11111010 @
1&
1#
1(
#526
0&
0#
0(
#527
b11111011 @
b11111100 U
1&
1#
1(
#528
0&
0#
0(
#529
b11111101 U
b11111100 @
1&
1#
1(
#530
0&
0#
0(
#531
b11111101 @
b11111110 U
1&
1#
1(
#532
0&
0#
0(
#533
b11111111 U
b11111110 @
1&
1#
1(
#534
0&
0#
0(
#535
b11111111 @
b100000000 U
1&
1#
1(
#536
0&
0#
0(
#537
b100000001 U
b100000000 @
1&
1#
1(
#538
0&
0#
0(
#539
b100000001 @
b100000010 U
1&
1#
1(
#540
0&
0#
0(
#541
b100000011 U
b100000010 @
1&
1#
1(
#542
0&
0#
0(
#543
b100000011 @
b100000100 U
1&
1#
1(
#544
0&
0#
0(
#545
b100000101 U
b100000100 @
1&
1#
1(
#546
0&
0#
0(
#547
b100000101 @
b100000110 U
1&
1#
1(
#548
0&
0#
0(
#549
b100000111 U
b100000110 @
1&
1#
1(
#550
0&
0#
0(
#551
b100000111 @
b100001000 U
1&
1#
1(
#552
0&
0#
0(
#553
b100001001 U
b100001000 @
1&
1#
1(
#554
0&
0#
0(
#555
b100001001 @
b100001010 U
1&
1#
1(
#556
0&
0#
0(
#557
b100001011 U
b100001010 @
1&
1#
1(
#558
0&
0#
0(
#559
b100001011 @
b100001100 U
1&
1#
1(
#560
0&
0#
0(
#561
b100001101 U
b100001100 @
1&
1#
1(
#562
0&
0#
0(
#563
b100001101 @
b100001110 U
1&
1#
1(
#564
0&
0#
0(
#565
b100001111 U
b100001110 @
1&
1#
1(
#566
0&
0#
0(
#567
b100001111 @
b100010000 U
1&
1#
1(
#568
0&
0#
0(
#569
b100010001 U
b100010000 @
1&
1#
1(
#570
0&
0#
0(
#571
b100010001 @
b100010010 U
1&
1#
1(
#572
0&
0#
0(
#573
b100010011 U
b100010010 @
1&
1#
1(
#574
0&
0#
0(
#575
b100010011 @
b100010100 U
1&
1#
1(
#576
0&
0#
0(
#577
b100010101 U
b100010100 @
1&
1#
1(
#578
0&
0#
0(
#579
b100010101 @
b100010110 U
1&
1#
1(
#580
0&
0#
0(
#581
b100010111 U
b100010110 @
1&
1#
1(
#582
0&
0#
0(
#583
b100010111 @
b100011000 U
1&
1#
1(
#584
0&
0#
0(
#585
b100011001 U
b100011000 @
1&
1#
1(
#586
0&
0#
0(
#587
b100011001 @
b100011010 U
1&
1#
1(
#588
0&
0#
0(
#589
b100011011 U
b100011010 @
1&
1#
1(
#590
0&
0#
0(
#591
b100011011 @
b100011100 U
1&
1#
1(
#592
0&
0#
0(
#593
b100011101 U
b100011100 @
1&
1#
1(
#594
0&
0#
0(
#595
b100011101 @
b100011110 U
1&
1#
1(
#596
0&
0#
0(
#597
b100011111 U
b100011110 @
1&
1#
1(
#598
0&
0#
0(
#599
b100011111 @
b100100000 U
1&
1#
1(
#600
0&
0#
0(
#601
b100100001 U
b100100000 @
1&
1#
1(
#602
0&
0#
0(
#603
b100100001 @
b100100010 U
1&
1#
1(
#604
0&
0#
0(
#605
b100100011 U
b100100010 @
1&
1#
1(
#606
0&
0#
0(
#607
b100100011 @
b100100100 U
1&
1#
1(
#608
0&
0#
0(
#609
b100100101 U
b100100100 @
1&
1#
1(
#610
0&
0#
0(
#611
b100100101 @
b100100110 U
1&
1#
1(
#612
0&
0#
0(
#613
b100100111 U
b100100110 @
1&
1#
1(
#614
0&
0#
0(
#615
b100100111 @
b100101000 U
1&
1#
1(
#616
0&
0#
0(
#617
b100101001 U
b100101000 @
1&
1#
1(
#618
0&
0#
0(
#619
b100101001 @
b100101010 U
1&
1#
1(
#620
0&
0#
0(
#621
b100101011 U
b100101010 @
1&
1#
1(
#622
0&
0#
0(
#623
b100101011 @
b100101100 U
1&
1#
1(
#624
0&
0#
0(
#625
b100101101 U
b100101100 @
1&
1#
1(
#626
0&
0#
0(
#627
b100101101 @
b100101110 U
1&
1#
1(
#628
0&
0#
0(
#629
b100101111 U
b100101110 @
1&
1#
1(
#630
0&
0#
0(
#631
b100101111 @
b100110000 U
1&
1#
1(
#632
0&
0#
0(
#633
b100110001 U
b100110000 @
1&
1#
1(
#634
0&
0#
0(
#635
b100110001 @
b100110010 U
1&
1#
1(
#636
0&
0#
0(
#637
b100110011 U
b100110010 @
1&
1#
1(
#638
0&
0#
0(
#639
b100110011 @
b100110100 U
1&
1#
1(
#640
0&
0#
0(
#641
b100110101 U
b100110100 @
1&
1#
1(
#642
0&
0#
0(
#643
b100110101 @
b100110110 U
1&
1#
1(
#644
0&
0#
0(
#645
b100110111 U
b100110110 @
1&
1#
1(
#646
0&
0#
0(
#647
b100110111 @
b100111000 U
1&
1#
1(
#648
0&
0#
0(
#649
b100111001 U
b100111000 @
1&
1#
1(
#650
0&
0#
0(
#651
b100111001 @
b100111010 U
1&
1#
1(
#652
0&
0#
0(
#653
b100111011 U
b100111010 @
1&
1#
1(
#654
0&
0#
0(
#655
b100111011 @
b100111100 U
1&
1#
1(
#656
0&
0#
0(
#657
b100111101 U
b100111100 @
1&
1#
1(
#658
0&
0#
0(
#659
b100111101 @
b100111110 U
1&
1#
1(
#660
0&
0#
0(
#661
b100111111 U
b100111110 @
1&
1#
1(
#662
0&
0#
0(
#663
b100111111 @
b101000000 U
1&
1#
1(
#664
0&
0#
0(
#665
b101000001 U
b101000000 @
1&
1#
1(
#666
0&
0#
0(
#667
b101000001 @
b101000010 U
1&
1#
1(
#668
0&
0#
0(
#669
b101000011 U
b101000010 @
1&
1#
1(
#670
0&
0#
0(
#671
b101000011 @
b101000100 U
1&
1#
1(
#672
0&
0#
0(
#673
b101000101 U
b101000100 @
1&
1#
1(
#674
0&
0#
0(
#675
b101000101 @
b101000110 U
1&
1#
1(
#676
0&
0#
0(
#677
b101000111 U
b101000110 @
1&
1#
1(
#678
0&
0#
0(
#679
b101000111 @
b101001000 U
1&
1#
1(
#680
0&
0#
0(
#681
b101001001 U
b101001000 @
1&
1#
1(
#682
0&
0#
0(
#683
b101001001 @
b101001010 U
1&
1#
1(
#684
0&
0#
0(
#685
b101001011 U
b101001010 @
1&
1#
1(
#686
0&
0#
0(
#687
b101001011 @
b101001100 U
1&
1#
1(
#688
0&
0#
0(
#689
b101001101 U
b101001100 @
1&
1#
1(
#690
0&
0#
0(
#691
b101001101 @
b101001110 U
1&
1#
1(
#692
0&
0#
0(
#693
b101001111 U
b101001110 @
1&
1#
1(
#694
0&
0#
0(
#695
b101001111 @
b101010000 U
1&
1#
1(
#696
0&
0#
0(
#697
b101010001 U
b101010000 @
1&
1#
1(
#698
0&
0#
0(
#699
b101010001 @
b101010010 U
1&
1#
1(
#700
0&
0#
0(
#701
b101010011 U
b101010010 @
1&
1#
1(
#702
0&
0#
0(
#703
b101010011 @
b101010100 U
1&
1#
1(
#704
0&
0#
0(
#705
b101010101 U
b101010100 @
1&
1#
1(
#706
0&
0#
0(
#707
b101010101 @
b101010110 U
1&
1#
1(
#708
0&
0#
0(
#709
b101010111 U
b101010110 @
1&
1#
1(
#710
0&
0#
0(
#711
b101010111 @
b101011000 U
1&
1#
1(
#712
0&
0#
0(
#713
b101011001 U
b101011000 @
1&
1#
1(
#714
0&
0#
0(
#715
b101011001 @
b101011010 U
1&
1#
1(
#716
0&
0#
0(
