test07/serial_s.vcd
$date
	Fri Apr  8 14:58:05 2016
$end
$version
	Icarus Verilog
$end
$timescale
	1ns
$end
$scope module tb $end
$scope module serial_s_instance $end
$var wire 1 ! TDX $end
$var wire 1 " _counter_i_countup $end
$var wire 1 # _counter_i_m_clock $end
$var wire 1 $ _counter_i_p_reset $end
$var wire 1 % _counter_i_reset $end
$var wire 1 & _net_9 $end
$var wire 1 ' _proc_send_reset $end
$var wire 1 ( _proc_send_set $end
$var wire 1 ) _reg_14_goin $end
$var wire 1 * _reg_15_goin $end
$var wire 1 + _reg_15_goto $end
$var wire 1 , _reg_16_goto $end
$var wire 1 - _reg_17_goin $end
$var wire 1 . _reg_18_goin $end
$var wire 1 / _reg_18_goto $end
$var wire 1 0 _reg_19_goin $end
$var wire 1 1 _reg_19_goto $end
$var wire 1 2 m_clock $end
$var wire 1 3 p_reset $end
$var wire 4 4 _net_6 [3:0] $end
$var wire 1 5 _net_32 $end
$var wire 1 6 _net_31 $end
$var wire 1 7 _net_30 $end
$var wire 1 8 _net_28 $end
$var wire 1 9 _net_27 $end
$var wire 1 : _net_26 $end
$var wire 13 ; _counter_i_f [12:0] $end
$var reg 1 < TDX_r $end
$var reg 1 = _reg_10 $end
$var reg 1 > _reg_11 $end
$var reg 1 ? _reg_12 $end
$var reg 1 @ _reg_13 $end
$var reg 1 A _reg_14 $end
$var reg 1 B _reg_15 $end
$var reg 1 C _reg_16 $end
$var reg 1 D _reg_17 $end
$var reg 1 E _reg_18 $end
$var reg 1 F _reg_19 $end
$var reg 1 G _reg_20 $end
$var reg 1 H _reg_21 $end
$var reg 1 I _reg_22 $end
$var reg 1 J _reg_23 $end
$var reg 8 K data [7:0] $end
$var reg 4 L loop [3:0] $end
$var reg 1 M send $end
$var reg 1 N sending $end
$scope module counter_i $end
$var wire 1 " countup $end
$var wire 13 O f [12:0] $end
$var wire 1 2 m_clock $end
$var wire 1 3 p_reset $end
$var wire 1 % reset $end
$var wire 1 P _net_1 $end
$var wire 1 Q _net_0 $end
$var reg 13 R cnt [12:0] $end
$upscope $end
$upscope $end
$upscope $end
$enddefinitions $end
#0
$dumpvars
b0 R
xQ
xP
b0 O
0N
0M
b0 L
bx K
0J
0I
0H
0G
0F
0E
0D
0C
0B
0A
0@
0?
0>
0=
1<
b0 ;
x:
x9
x8
x7
x6
x5
bx 4
13
02
01
00
0/
0.
0-
0,
0+
0*
0)
1(
0'
1&
0%
1$
0#
0"
1!
$end
#1
b100100 K
1#
12
#2
0#
02
0$
03
#3
1M
1J
1#
12
#4
0#
02
#5
1%
0(
0&
1I
1N
1#
12
#6
0#
02
#7
1H
0J
1#
12
#8
0#
02
#9
0%
0I
1G
0!
0<
1#
12
#10
0#
02
#11
0*
05
1F
0H
1#
12
#12
0#
02
#13
1Q
16
0P
1/
1.
1"
07
0G
1E
1#
12
#14
0#
02
#15
x5
b1 ;
b1 O
b1 R
0F
1#
12
#16
0#
02
#17
b10 ;
b10 O
b10 R
1#
12
#18
0#
02
#19
b11 ;
b11 O
b11 R
1#
12
#20
0#
02
#21
b100 ;
b100 O
b100 R
1#
12
#22
0#
02
#23
b101 ;
b101 O
b101 R
1#
12
#24
0#
02
#25
b110 ;
b110 O
b110 R
1#
12
#26
0#
02
#27
b111 ;
b111 O
b111 R
1#
12
#28
0#
02
#29
b1000 ;
b1000 O
b1000 R
1#
12
#30
0#
02
#31
b1001 ;
b1001 O
b1001 R
1#
12
#32
0#
02
#33
b1010 ;
b1010 O
b1010 R
1#
12
#34
0#
02
#35
b1011 ;
b1011 O
b1011 R
1#
12
#36
0#
02
#37
b1100 ;
b1100 O
b1100 R
1#
12
#38
0#
02
#39
b1101 ;
b1101 O
b1101 R
1#
12
#40
0#
02
#41
b1110 ;
b1110 O
b1110 R
1#
12
#42
0#
02
#43
b1111 ;
b1111 O
b1111 R
1#
12
#44
0#
02
#45
b10000 ;
b10000 O
b10000 R
1#
12
#46
0#
02
#47
b10001 ;
b10001 O
b10001 R
1#
12
#48
0#
02
#49
b10010 ;
b10010 O
b10010 R
1#
12
#50
0#
02
#51
b10011 ;
b10011 O
b10011 R
1#
12
#52
0#
02
#53
b10100 ;
b10100 O
b10100 R
1#
12
#54
0#
02
#55
b10101 ;
b10101 O
b10101 R
1#
12
#56
0#
02
#57
b10110 ;
b10110 O
b10110 R
1#
12
#58
0#
02
#59
b10111 ;
b10111 O
b10111 R
1#
12
#60
0#
02
#61
b11000 ;
b11000 O
b11000 R
1#
12
#62
0#
02
#63
b11001 ;
b11001 O
b11001 R
1#
12
#64
0#
02
#65
b11010 ;
b11010 O
b11010 R
1#
12
#66
0#
02
#67
b11011 ;
b11011 O
b11011 R
1#
12
#68
0#
02
#69
b11100 ;
b11100 O
b11100 R
1#
12
#70
0#
02
#71
b11101 ;
b11101 O
b11101 R
1#
12
#72
0#
02
#73
b11110 ;
b11110 O
b11110 R
1#
12
#74
0#
02
#75
b11111 ;
b11111 O
b11111 R
1#
12
#76
0#
02
#77
b100000 ;
b100000 O
b100000 R
1#
12
#78
0#
02
#79
b100001 ;
b100001 O
b100001 R
1#
12
#80
0#
02
#81
b100010 ;
b100010 O
b100010 R
1#
12
#82
0#
02
#83
b100011 ;
b100011 O
b100011 R
1#
12
#84
0#
02
#85
b100100 ;
b100100 O
b100100 R
1#
12
#86
0#
02
#87
b100101 ;
b100101 O
b100101 R
1#
12
#88
0#
02
#89
b100110 ;
b100110 O
b100110 R
1#
12
#90
0#
02
#91
b100111 ;
b100111 O
b100111 R
1#
12
#92
0#
02
#93
b101000 ;
b101000 O
b101000 R
1#
12
#94
0#
02
#95
b101001 ;
b101001 O
b101001 R
1#
12
#96
0#
02
#97
b101010 ;
b101010 O
b101010 R
1#
12
#98
0#
02
#99
b101011 ;
b101011 O
b101011 R
1#
12
#100
0#
02
#101
b101100 ;
b101100 O
b101100 R
1#
12
#102
0#
02
#103
b101101 ;
b101101 O
b101101 R
1#
12
#104
0#
02
#105
b101110 ;
b101110 O
b101110 R
1#
12
#106
0#
02
#107
b101111 ;
b101111 O
b101111 R
1#
12
#108
0#
02
#109
b110000 ;
b110000 O
b110000 R
1#
12
#110
0#
02
#111
b110001 ;
b110001 O
b110001 R
1#
12
#112
0#
02
#113
b110010 ;
b110010 O
b110010 R
1#
12
#114
0#
02
#115
b110011 ;
b110011 O
b110011 R
1#
12
#116
0#
02
#117
b110100 ;
b110100 O
b110100 R
1#
12
#118
0#
02
#119
b110101 ;
b110101 O
b110101 R
1#
12
#120
0#
02
#121
b110110 ;
b110110 O
b110110 R
1#
12
#122
0#
02
#123
b110111 ;
b110111 O
b110111 R
1#
12
#124
0#
02
#125
b111000 ;
b111000 O
b111000 R
1#
12
#126
0#
02
#127
b111001 ;
b111001 O
b111001 R
1#
12
#128
0#
02
#129
b111010 ;
b111010 O
b111010 R
1#
12
#130
0#
02
#131
b111011 ;
b111011 O
b111011 R
1#
12
#132
0#
02
#133
b111100 ;
b111100 O
b111100 R
1#
12
#134
0#
02
#135
b111101 ;
b111101 O
b111101 R
1#
12
#136
0#
02
#137
b111110 ;
b111110 O
b111110 R
1#
12
#138
0#
02
#139
b111111 ;
b111111 O
b111111 R
1#
12
#140
0#
02
#141
b1000000 ;
b1000000 O
b1000000 R
1#
12
#142
0#
02
#143
b1000001 ;
b1000001 O
b1000001 R
1#
12
#144
0#
02
#145
b1000010 ;
b1000010 O
b1000010 R
1#
12
#146
0#
02
#147
b1000011 ;
b1000011 O
b1000011 R
1#
12
#148
0#
02
#149
b1000100 ;
b1000100 O
b1000100 R
1#
12
#150
0#
02
#151
b1000101 ;
b1000101 O
b1000101 R
1#
12
#152
0#
02
#153
b1000110 ;
b1000110 O
b1000110 R
1#
12
#154
0#
02
#155
b1000111 ;
b1000111 O
b1000111 R
1#
12
#156
0#
02
#157
b1001000 ;
b1001000 O
b1001000 R
1#
12
#158
0#
02
#159
b1001001 ;
b1001001 O
b1001001 R
1#
12
#160
0#
02
#161
b1001010 ;
b1001010 O
b1001010 R
1#
12
#162
0#
02
#163
b1001011 ;
b1001011 O
b1001011 R
1#
12
#164
0#
02
#165
b1001100 ;
b1001100 O
b1001100 R
1#
12
#166
0#
02
#167
b1001101 ;
b1001101 O
b1001101 R
1#
12
#168
0#
02
#169
b1001110 ;
b1001110 O
b1001110 R
1#
12
#170
0#
02
#171
b1001111 ;
b1001111 O
b1001111 R
1#
12
#172
0#
02
#173
b1010000 ;
b1010000 O
b1010000 R
1#
12
#174
0#
02
#175
b1010001 ;
b1010001 O
b1010001 R
1#
12
#176
0#
02
#177
b1010010 ;
b1010010 O
b1010010 R
1#
12
#178
0#
02
#179
b1010011 ;
b1010011 O
b1010011 R
1#
12
#180
0#
02
#181
b1010100 ;
b1010100 O
b1010100 R
1#
12
#182
0#
02
#183
b1010101 ;
b1010101 O
b1010101 R
1#
12
#184
0#
02
#185
b1010110 ;
b1010110 O
b1010110 R
1#
12
#186
0#
02
#187
b1010111 ;
b1010111 O
b1010111 R
1#
12
#188
0#
02
#189
b1011000 ;
b1011000 O
b1011000 R
1#
12
#190
0#
02
#191
b1011001 ;
b1011001 O
b1011001 R
1#
12
#192
0#
02
#193
b1011010 ;
b1011010 O
b1011010 R
1#
12
#194
0#
02
#195
b1011011 ;
b1011011 O
b1011011 R
1#
12
#196
0#
02
#197
b1011100 ;
b1011100 O
b1011100 R
1#
12
#198
0#
02
#199
b1011101 ;
b1011101 O
b1011101 R
1#
12
#200
0#
02
#201
b1011110 ;
b1011110 O
b1011110 R
1#
12
#202
0#
02
#203
b1011111 ;
b1011111 O
b1011111 R
1#
12
#204
0#
02
#205
b1100000 ;
b1100000 O
b1100000 R
1#
12
#206
0#
02
#207
b1100001 ;
b1100001 O
b1100001 R
1#
12
#208
0#
02
#209
b1100010 ;
b1100010 O
b1100010 R
1#
12
#210
0#
02
#211
b1100011 ;
b1100011 O
b1100011 R
1#
12
#212
0#
02
#213
b1100100 ;
b1100100 O
b1100100 R
1#
12
#214
0#
02
#215
b1100101 ;
b1100101 O
b1100101 R
1#
12
#216
0#
02
#217
b1100110 ;
b1100110 O
b1100110 R
1#
12
#218
0#
02
#219
b1100111 ;
b1100111 O
b1100111 R
1#
12
#220
0#
02
#221
b1101000 ;
b1101000 O
b1101000 R
1#
12
#222
0#
02
#223
b1101001 ;
b1101001 O
b1101001 R
1#
12
#224
0#
02
#225
b1101010 ;
b1101010 O
b1101010 R
1#
12
#226
0#
02
#227
b1101011 ;
b1101011 O
b1101011 R
1#
12
#228
0#
02
#229
b1101100 ;
b1101100 O
b1101100 R
1#
12
#230
0#
02
#231
b1101101 ;
b1101101 O
b1101101 R
1#
12
#232
0#
02
#233
b1101110 ;
b1101110 O
b1101110 R
1#
12
#234
0#
02
#235
b1101111 ;
b1101111 O
b1101111 R
1#
12
#236
0#
02
#237
b1110000 ;
b1110000 O
b1110000 R
1#
12
#238
0#
02
#239
b1110001 ;
b1110001 O
b1110001 R
1#
12
#240
0#
02
#241
b1110010 ;
b1110010 O
b1110010 R
1#
12
#242
0#
02
#243
b1110011 ;
b1110011 O
b1110011 R
1#
12
#244
0#
02
#245
b1110100 ;
b1110100 O
b1110100 R
1#
12
#246
0#
02
#247
b1110101 ;
b1110101 O
b1110101 R
1#
12
#248
0#
02
#249
b1110110 ;
b1110110 O
b1110110 R
1#
12
#250
0#
02
#251
b1110111 ;
b1110111 O
b1110111 R
1#
12
#252
0#
02
#253
b1111000 ;
b1111000 O
b1111000 R
1#
12
#254
0#
02
#255
b1111001 ;
b1111001 O
b1111001 R
1#
12
#256
0#
02
#257
b1111010 ;
b1111010 O
b1111010 R
1#
12
#258
0#
02
#259
b1111011 ;
b1111011 O
b1111011 R
1#
12
#260
0#
02
#261
b1111100 ;
b1111100 O
b1111100 R
1#
12
#262
0#
02
#263
b1111101 ;
b1111101 O
b1111101 R
1#
12
#264
0#
02
#265
b1111110 ;
b1111110 O
b1111110 R
1#
12
#266
0#
02
#267
b1111111 ;
b1111111 O
b1111111 R
1#
12
#268
0#
02
#269
b10000000 ;
b10000000 O
b10000000 R
1#
12
#270
0#
02
#271
b10000001 ;
b10000001 O
b10000001 R
1#
12
#272
0#
02
#273
b10000010 ;
b10000010 O
b10000010 R
1#
12
#274
0#
02
#275
b10000011 ;
b10000011 O
b10000011 R
1#
12
#276
0#
02
#277
b10000100 ;
b10000100 O
b10000100 R
1#
12
#278
0#
02
#279
b10000101 ;
b10000101 O
b10000101 R
1#
12
#280
0#
02
#281
b10000110 ;
b10000110 O
b10000110 R
1#
12
#282
0#
02
#283
b10000111 ;
b10000111 O
b10000111 R
1#
12
#284
0#
02
#285
b10001000 ;
b10001000 O
b10001000 R
1#
12
#286
0#
02
#287
b10001001 ;
b10001001 O
b10001001 R
1#
12
#288
0#
02
#289
b10001010 ;
b10001010 O
b10001010 R
1#
12
#290
0#
02
#291
b10001011 ;
b10001011 O
b10001011 R
1#
12
#292
0#
02
#293
b10001100 ;
b10001100 O
b10001100 R
1#
12
#294
0#
02
#295
b10001101 ;
b10001101 O
b10001101 R
1#
12
#296
0#
02
#297
b10001110 ;
b10001110 O
b10001110 R
1#
12
#298
0#
02
#299
b10001111 ;
b10001111 O
b10001111 R
1#
12
#300
0#
02
#301
b10010000 ;
b10010000 O
b10010000 R
1#
12
#302
0#
02
#303
b10010001 ;
b10010001 O
b10010001 R
1#
12
#304
0#
02
#305
b10010010 ;
b10010010 O
b10010010 R
1#
12
#306
0#
02
#307
b10010011 ;
b10010011 O
b10010011 R
1#
12
#308
0#
02
#309
b10010100 ;
b10010100 O
b10010100 R
1#
12
#310
0#
02
#311
b10010101 ;
b10010101 O
b10010101 R
1#
12
#312
0#
02
#313
b10010110 ;
b10010110 O
b10010110 R
1#
12
#314
0#
02
#315
b10010111 ;
b10010111 O
b10010111 R
1#
12
#316
0#
02
#317
b10011000 ;
b10011000 O
b10011000 R
1#
12
#318
0#
02
#319
b10011001 ;
b10011001 O
b10011001 R
1#
12
#320
0#
02
#321
b10011010 ;
b10011010 O
b10011010 R
1#
12
#322
0#
02
#323
b10011011 ;
b10011011 O
b10011011 R
1#
12
#324
0#
02
#325
b10011100 ;
b10011100 O
b10011100 R
1#
12
#326
0#
02
#327
b10011101 ;
b10011101 O
b10011101 R
1#
12
#328
0#
02
#329
b10011110 ;
b10011110 O
b10011110 R
1#
12
#330
0#
02
#331
b10011111 ;
b10011111 O
b10011111 R
1#
12
#332
0#
02
#333
b10100000 ;
b10100000 O
b10100000 R
1#
12
#334
0#
02
#335
b10100001 ;
b10100001 O
b10100001 R
1#
12
#336
0#
02
#337
b10100010 ;
b10100010 O
b10100010 R
1#
12
#338
0#
02
#339
b10100011 ;
b10100011 O
b10100011 R
1#
12
#340
0#
02
#341
b10100100 ;
b10100100 O
b10100100 R
1#
12
#342
0#
02
#343
b10100101 ;
b10100101 O
b10100101 R
1#
12
#344
0#
02
#345
b10100110 ;
b10100110 O
b10100110 R
1#
12
#346
0#
02
#347
b10100111 ;
b10100111 O
b10100111 R
1#
12
#348
0#
02
#349
b10101000 ;
b10101000 O
b10101000 R
1#
12
#350
0#
02
#351
b10101001 ;
b10101001 O
b10101001 R
1#
12
#352
0#
02
#353
b10101010 ;
b10101010 O
b10101010 R
1#
12
#354
0#
02
#355
b10101011 ;
b10101011 O
b10101011 R
1#
12
#356
0#
02
#357
b10101100 ;
b10101100 O
b10101100 R
1#
12
#358
0#
02
#359
b10101101 ;
b10101101 O
b10101101 R
1#
12
#360
0#
02
#361
b10101110 ;
b10101110 O
b10101110 R
1#
12
#362
0#
02
#363
b10101111 ;
b10101111 O
b10101111 R
1#
12
#364
0#
02
#365
b10110000 ;
b10110000 O
b10110000 R
1#
12
#366
0#
02
#367
b10110001 ;
b10110001 O
b10110001 R
1#
12
#368
0#
02
#369
b10110010 ;
b10110010 O
b10110010 R
1#
12
#370
0#
02
#371
b10110011 ;
b10110011 O
b10110011 R
1#
12
#372
0#
02
#373
b10110100 ;
b10110100 O
b10110100 R
1#
12
#374
0#
02
#375
b10110101 ;
b10110101 O
b10110101 R
1#
12
#376
0#
02
#377
b10110110 ;
b10110110 O
b10110110 R
1#
12
#378
0#
02
#379
b10110111 ;
b10110111 O
b10110111 R
1#
12
#380
0#
02
#381
b10111000 ;
b10111000 O
b10111000 R
1#
12
#382
0#
02
#383
b10111001 ;
b10111001 O
b10111001 R
1#
12
#384
0#
02
#385
b10111010 ;
b10111010 O
b10111010 R
1#
12
#386
0#
02
#387
b10111011 ;
b10111011 O
b10111011 R
1#
12
#388
0#
02
#389
b10111100 ;
b10111100 O
b10111100 R
1#
12
#390
0#
02
#391
b10111101 ;
b10111101 O
b10111101 R
1#
12
#392
0#
02
#393
b10111110 ;
b10111110 O
b10111110 R
1#
12
#394
0#
02
#395
b10111111 ;
b10111111 O
b10111111 R
1#
12
#396
0#
02
#397
b11000000 ;
b11000000 O
b11000000 R
1#
12
#398
0#
02
#399
b11000001 ;
b11000001 O
b11000001 R
1#
12
#400
0#
02
#401
b11000010 ;
b11000010 O
b11000010 R
1#
12
#402
0#
02
#403
b11000011 ;
b11000011 O
b11000011 R
1#
12
#404
0#
02
#405
b11000100 ;
b11000100 O
b11000100 R
1#
12
#406
0#
02
#407
b11000101 ;
b11000101 O
b11000101 R
1#
12
#408
0#
02
#409
b11000110 ;
b11000110 O
b11000110 R
1#
12
#410
0#
02
#411
b11000111 ;
b11000111 O
b11000111 R
1#
12
#412
0#
02
#413
b11001000 ;
b11001000 O
b11001000 R
1#
12
#414
0#
02
#415
b11001001 ;
b11001001 O
b11001001 R
1#
12
#416
0#
02
#417
b11001010 ;
b11001010 O
b11001010 R
1#
12
#418
0#
02
#419
b11001011 ;
b11001011 O
b11001011 R
1#
12
#420
0#
02
#421
b11001100 ;
b11001100 O
b11001100 R
1#
12
#422
0#
02
#423
b11001101 ;
b11001101 O
b11001101 R
1#
12
#424
0#
02
#425
b11001110 ;
b11001110 O
b11001110 R
1#
12
#426
0#
02
#427
b11001111 ;
b11001111 O
b11001111 R
1#
12
#428
0#
02
#429
b11010000 ;
b11010000 O
b11010000 R
1#
12
#430
0#
02
#431
b11010001 ;
b11010001 O
b11010001 R
1#
12
#432
0#
02
#433
b11010010 ;
b11010010 O
b11010010 R
1#
12
#434
0#
02
#435
b11010011 ;
b11010011 O
b11010011 R
1#
12
#436
0#
02
#437
b11010100 ;
b11010100 O
b11010100 R
1#
12
#438
0#
02
#439
b11010101 ;
b11010101 O
b11010101 R
1#
12
#440
0#
02
#441
b11010110 ;
b11010110 O
b11010110 R
1#
12
#442
0#
02
#443
b11010111 ;
b11010111 O
b11010111 R
1#
12
#444
0#
02
#445
b11011000 ;
b11011000 O
b11011000 R
1#
12
#446
0#
02
#447
b11011001 ;
b11011001 O
b11011001 R
1#
12
#448
0#
02
#449
b11011010 ;
b11011010 O
b11011010 R
1#
12
#450
0#
02
#451
b11011011 ;
b11011011 O
b11011011 R
1#
12
#452
0#
02
#453
b11011100 ;
b11011100 O
b11011100 R
1#
12
#454
0#
02
#455
b11011101 ;
b11011101 O
b11011101 R
1#
12
#456
0#
02
#457
b11011110 ;
b11011110 O
b11011110 R
1#
12
#458
0#
02
#459
b11011111 ;
b11011111 O
b11011111 R
1#
12
#460
0#
02
#461
b11100000 ;
b11100000 O
b11100000 R
1#
12
#462
0#
02
#463
b11100001 ;
b11100001 O
b11100001 R
1#
12
#464
0#
02
#465
b11100010 ;
b11100010 O
b11100010 R
1#
12
#466
0#
02
#467
b11100011 ;
b11100011 O
b11100011 R
1#
12
#468
0#
02
#469
b11100100 ;
b11100100 O
b11100100 R
1#
12
#470
0#
02
#471
b11100101 ;
b11100101 O
b11100101 R
1#
12
#472
0#
02
#473
b11100110 ;
b11100110 O
b11100110 R
1#
12
#474
0#
02
#475
b11100111 ;
b11100111 O
b11100111 R
1#
12
#476
0#
02
#477
b11101000 ;
b11101000 O
b11101000 R
1#
12
#478
0#
02
#479
b11101001 ;
b11101001 O
b11101001 R
1#
12
#480
0#
02
#481
b11101010 ;
b11101010 O
b11101010 R
1#
12
#482
0#
02
#483
b11101011 ;
b11101011 O
b11101011 R
1#
12
#484
0#
02
#485
b11101100 ;
b11101100 O
b11101100 R
1#
12
#486
0#
02
#487
b11101101 ;
b11101101 O
b11101101 R
1#
12
#488
0#
02
#489
b11101110 ;
b11101110 O
b11101110 R
1#
12
#490
0#
02
#491
b11101111 ;
b11101111 O
b11101111 R
1#
12
#492
0#
02
#493
b11110000 ;
b11110000 O
b11110000 R
1#
12
#494
0#
02
#495
b11110001 ;
b11110001 O
b11110001 R
1#
12
#496
0#
02
#497
b11110010 ;
b11110010 O
b11110010 R
1#
12
#498
0#
02
#499
b11110011 ;
b11110011 O
b11110011 R
1#
12
#500
0#
02
#501
b11110100 ;
b11110100 O
b11110100 R
1#
12
#502
0#
02
#503
b11110101 ;
b11110101 O
b11110101 R
1#
12
#504
0#
02
#505
b11110110 ;
b11110110 O
b11110110 R
1#
12
#506
0#
02
#507
b11110111 ;
b11110111 O
b11110111 R
1#
12
#508
0#
02
#509
b11111000 ;
b11111000 O
b11111000 R
1#
12
#510
0#
02
#511
b11111001 ;
b11111001 O
b11111001 R
1#
12
#512
0#
02
#513
b11111010 ;
b11111010 O
b11111010 R
1#
12
#514
0#
02
#515
b11111011 ;
b11111011 O
b11111011 R
1#
12
#516
0#
02
#517
b11111100 ;
b11111100 O
b11111100 R
1#
12
#518
0#
02
#519
b11111101 ;
b11111101 O
b11111101 R
1#
12
#520
0#
02
#521
b11111110 ;
b11111110 O
b11111110 R
1#
12
#522
0#
02
#523
b11111111 ;
b11111111 O
b11111111 R
1#
12
#524
0#
02
#525
b100000000 ;
b100000000 O
b100000000 R
1#
12
#526
0#
02
#527
b100000001 ;
b100000001 O
b100000001 R
1#
12
#528
0#
02
#529
b100000010 ;
b100000010 O
b100000010 R
1#
12
#530
0#
02
#531
b100000011 ;
b100000011 O
b100000011 R
1#
12
#532
0#
02
#533
b100000100 ;
b100000100 O
b100000100 R
1#
12
#534
0#
02
#535
b100000101 ;
b100000101 O
b100000101 R
1#
12
#536
0#
02
#537
b100000110 ;
b100000110 O
b100000110 R
1#
12
#538
0#
02
#539
b100000111 ;
b100000111 O
b100000111 R
1#
12
#540
0#
02
#541
b100001000 ;
b100001000 O
b100001000 R
1#
12
#542
0#
02
#543
b100001001 ;
b100001001 O
b100001001 R
1#
12
#544
0#
02
#545
b100001010 ;
b100001010 O
b100001010 R
1#
12
#546
0#
02
#547
b100001011 ;
b100001011 O
b100001011 R
1#
12
#548
0#
02
#549
b100001100 ;
b100001100 O
b100001100 R
1#
12
#550
0#
02
#551
b100001101 ;
b100001101 O
b100001101 R
1#
12
#552
0#
02
#553
b100001110 ;
b100001110 O
b100001110 R
1#
12
#554
0#
02
#555
b100001111 ;
b100001111 O
b100001111 R
1#
12
#556
0#
02
#557
b100010000 ;
b100010000 O
b100010000 R
1#
12
#558
0#
02
#559
b100010001 ;
b100010001 O
b100010001 R
1#
12
#560
0#
02
#561
b100010010 ;
b100010010 O
b100010010 R
1#
12
#562
0#
02
#563
b100010011 ;
b100010011 O
b100010011 R
1#
12
#564
0#
02
#565
b100010100 ;
b100010100 O
b100010100 R
1#
12
#566
0#
02
#567
b100010101 ;
b100010101 O
b100010101 R
1#
12
#568
0#
02
#569
b100010110 ;
b100010110 O
b100010110 R
1#
12
#570
0#
02
#571
b100010111 ;
b100010111 O
b100010111 R
1#
12
#572
0#
02
#573
b100011000 ;
b100011000 O
b100011000 R
1#
12
#574
0#
02
#575
b100011001 ;
b100011001 O
b100011001 R
1#
12
#576
0#
02
#577
b100011010 ;
b100011010 O
b100011010 R
1#
12
#578
0#
02
#579
b100011011 ;
b100011011 O
b100011011 R
1#
12
#580
0#
02
#581
b100011100 ;
b100011100 O
b100011100 R
1#
12
#582
0#
02
#583
b100011101 ;
b100011101 O
b100011101 R
1#
12
#584
0#
02
#585
b100011110 ;
b100011110 O
b100011110 R
1#
12
#586
0#
02
#587
b100011111 ;
b100011111 O
b100011111 R
1#
12
#588
0#
02
#589
b100100000 ;
b100100000 O
b100100000 R
1#
12
#590
0#
02
#591
b100100001 ;
b100100001 O
b100100001 R
1#
12
#592
0#
02
#593
b100100010 ;
b100100010 O
b100100010 R
1#
12
#594
0#
02
#595
b100100011 ;
b100100011 O
b100100011 R
1#
12
#596
0#
02
#597
b100100100 ;
b100100100 O
b100100100 R
1#
12
#598
0#
02
#599
b100100101 ;
b100100101 O
b100100101 R
1#
12
#600
0#
02
#601
b100100110 ;
b100100110 O
b100100110 R
1#
12
#602
0#
02
#603
b100100111 ;
b100100111 O
b100100111 R
1#
12
#604
0#
02
#605
b100101000 ;
b100101000 O
b100101000 R
1#
12
#606
0#
02
#607
b100101001 ;
b100101001 O
b100101001 R
1#
12
#608
0#
02
#609
b100101010 ;
b100101010 O
b100101010 R
1#
12
#610
0#
02
#611
b100101011 ;
b100101011 O
b100101011 R
1#
12
#612
0#
02
#613
b100101100 ;
b100101100 O
b100101100 R
1#
12
#614
0#
02
#615
b100101101 ;
b100101101 O
b100101101 R
1#
12
#616
0#
02
#617
b100101110 ;
b100101110 O
b100101110 R
1#
12
#618
0#
02
#619
b100101111 ;
b100101111 O
b100101111 R
1#
12
#620
0#
02
#621
b100110000 ;
b100110000 O
b100110000 R
1#
12
#622
0#
02
#623
b100110001 ;
b100110001 O
b100110001 R
1#
12
#624
0#
02
#625
b100110010 ;
b100110010 O
b100110010 R
1#
12
#626
0#
02
#627
b100110011 ;
b100110011 O
b100110011 R
1#
12
#628
0#
02
#629
b100110100 ;
b100110100 O
b100110100 R
1#
12
#630
0#
02
#631
b100110101 ;
b100110101 O
b100110101 R
1#
12
#632
0#
02
#633
b100110110 ;
b100110110 O
b100110110 R
1#
12
#634
0#
02
#635
b100110111 ;
b100110111 O
b100110111 R
1#
12
#636
0#
02
#637
b100111000 ;
b100111000 O
b100111000 R
1#
12
#638
0#
02
#639
b100111001 ;
b100111001 O
b100111001 R
1#
12
#640
0#
02
#641
b100111010 ;
b100111010 O
b100111010 R
1#
12
#642
0#
02
#643
b100111011 ;
b100111011 O
b100111011 R
1#
12
#644
0#
02
#645
b100111100 ;
b100111100 O
b100111100 R
1#
12
#646
0#
02
#647
b100111101 ;
b100111101 O
b100111101 R
1#
12
#648
0#
02
#649
b100111110 ;
b100111110 O
b100111110 R
1#
12
#650
0#
02
#651
b100111111 ;
b100111111 O
b100111111 R
1#
12
#652
0#
02
#653
b101000000 ;
b101000000 O
b101000000 R
1#
12
#654
0#
02
#655
b101000001 ;
b101000001 O
b101000001 R
1#
12
#656
0#
02
#657
b101000010 ;
b101000010 O
b101000010 R
1#
12
#658
0#
02
#659
b101000011 ;
b101000011 O
b101000011 R
1#
12
#660
0#
02
#661
b101000100 ;
b101000100 O
b101000100 R
1#
12
#662
0#
02
#663
b101000101 ;
b101000101 O
b101000101 R
1#
12
#664
0#
02
#665
b101000110 ;
b101000110 O
b101000110 R
1#
12
#666
0#
02
#667
b101000111 ;
b101000111 O
b101000111 R
1#
12
#668
0#
02
#669
b101001000 ;
b101001000 O
b101001000 R
1#
12
#670
0#
02
#671
b101001001 ;
b101001001 O
b101001001 R
1#
12
#672
0#
02
#673
b101001010 ;
b101001010 O
b101001010 R
1#
12
#674
0#
02
#675
b101001011 ;
b101001011 O
b101001011 R
1#
12
#676
0#
02
#677
b101001100 ;
b101001100 O
b101001100 R
1#
12
#678
0#
02
#679
b101001101 ;
b101001101 O
b101001101 R
1#
12
#680
0#
02
#681
b101001110 ;
b101001110 O
b101001110 R
1#
12
#682
0#
02
#683
b101001111 ;
b101001111 O
b101001111 R
1#
12
#684
0#
02
#685
b101010000 ;
b101010000 O
b101010000 R
1#
12
#686
0#
02
#687
b101010001 ;
b101010001 O
b101010001 R
1#
12
#688
0#
02
#689
b101010010 ;
b101010010 O
b101010010 R
1#
12
#690
0#
02
#691
b101010011 ;
b101010011 O
b101010011 R
1#
12
#692
0#
02
#693
b101010100 ;
b101010100 O
b101010100 R
1#
12
#694
0#
02
#695
b101010101 ;
b101010101 O
b101010101 R
1#
12
#696
0#
02
#697
b101010110 ;
b101010110 O
b101010110 R
1#
12
#698
0#
02
#699
b101010111 ;
b101010111 O
b101010111 R
1#
12
#700
0#
02
#701
b101011000 ;
b101011000 O
b101011000 R
1#
12
#702
0#
02
#703
b101011001 ;
b101011001 O
b101011001 R
1#
12
#704
0#
02
#705
b101011010 ;
b101011010 O
b101011010 R
1#
12
#706
0#
02
#707
b101011011 ;
b101011011 O
b101011011 R
1#
12
#708
0#
02
#709
b101011100 ;
b101011100 O
b101011100 R
1#
12
#710
0#
02
#711
b101011101 ;
b101011101 O
b101011101 R
1#
12
#712
0#
02
#713
b101011110 ;
b101011110 O
b101011110 R
1#
12
#714
0#
02
#715
b101011111 ;
b101011111 O
b101011111 R
1#
12
#716
0#
02
#717
b101100000 ;
b101100000 O
b101100000 R
1#
12
#718
0#
02
#719
b101100001 ;
b101100001 O
b101100001 R
1#
12
#720
0#
02
#721
b101100010 ;
b101100010 O
b101100010 R
1#
12
#722
0#
02
#723
b101100011 ;
b101100011 O
b101100011 R
1#
12
#724
0#
02
#725
b101100100 ;
b101100100 O
b101100100 R
1#
12
#726
0#
02
#727
b101100101 ;
b101100101 O
b101100101 R
1#
12
#728
0#
02
#729
b101100110 ;
b101100110 O
b101100110 R
1#
12
#730
0#
02
#731
b101100111 ;
b101100111 O
b101100111 R
1#
12
#732
0#
02
#733
b101101000 ;
b101101000 O
b101101000 R
1#
12
#734
0#
02
#735
b101101001 ;
b101101001 O
b101101001 R
1#
12
#736
0#
02
#737
b101101010 ;
b101101010 O
b101101010 R
1#
12
